Apache Ant version 1.7.1 compiled on August 24 2010
Buildfile: SumRows.xml
Detected Java version: 1.6 in: /usr/lib/jvm/java-1.7.0-openjdk-1.7.0.79.x86_64/jre
Detected OS: Linux
parsing buildfile /home/maxeler/asplos16/benchmarks/kmeans/RunRules/DFE/SumRows.xml with URI = file:/home/maxeler/asplos16/benchmarks/kmeans/RunRules/DFE/SumRows.xml
Project base dir set to: /home/maxeler/asplos16/benchmarks/kmeans/EngineCode
[antlib:org.apache.tools.ant] Could not load definitions from resource org/apache/tools/ant/antlib.xml. It could not be found.
 [property] Loading Environment env.
Property "-*-command-variables-*-" has not been set
Property "env.MAXCOMPILERJCP" has not been set
Build sequence for target(s) `run' is [build, run]
Complete build sequence is [build, run, help, clean, all, jar, ]

build:
Detected Java version: 1.6 in: /usr/lib/jvm/java-1.7.0-openjdk-1.7.0.79.x86_64/jre
Detected OS: Linux
      [ant] calling target(s) [default] in build file /home/maxeler/asplos16/benchmarks/kmeans/RunRules/DFE/Project_Build.xml
parsing buildfile /home/maxeler/asplos16/benchmarks/kmeans/RunRules/DFE/Project_Build.xml with URI = file:/home/maxeler/asplos16/benchmarks/kmeans/RunRules/DFE/Project_Build.xml
Project base dir set to: /home/maxeler/asplos16/benchmarks/kmeans/EngineCode
 [property] Loading Environment env.
Property "-*-command-variables-*-" has not been set
Property "env.MAXCOMPILERJCP" has not been set
      [ant] Entering /home/maxeler/asplos16/benchmarks/kmeans/RunRules/DFE/Project_Build.xml...
Build sequence for target(s) `all' is [clean, build, all]
Complete build sequence is [clean, build, all, ]

clean:
   [delete] Deleting directory /home/maxeler/asplos16/benchmarks/kmeans/RunRules/DFE/dist
   [delete] Deleting /home/maxeler/asplos16/benchmarks/kmeans/RunRules/DFE/dist/bin/engine/x695_StateMachine.class
   [delete] Deleting /home/maxeler/asplos16/benchmarks/kmeans/RunRules/DFE/dist/bin/engine/x695.working.noburst.maxj.bak
   [delete] Deleting /home/maxeler/asplos16/benchmarks/kmeans/RunRules/DFE/dist/bin/engine/BlockLoaderLib.class
   [delete] Deleting /home/maxeler/asplos16/benchmarks/kmeans/RunRules/DFE/dist/bin/engine/BramLib.class
   [delete] Deleting /home/maxeler/asplos16/benchmarks/kmeans/RunRules/DFE/dist/bin/engine/x695_StateMachine$States.class
   [delete] Deleting /home/maxeler/asplos16/benchmarks/kmeans/RunRules/DFE/dist/bin/engine/x646x693_ParallelStateMachine.class
   [delete] Deleting /home/maxeler/asplos16/benchmarks/kmeans/RunRules/DFE/dist/bin/engine/DblRegFileLib.class
   [delete] Deleting /home/maxeler/asplos16/benchmarks/kmeans/RunRules/DFE/dist/bin/engine/MainStateMachine.class
   [delete] Deleting /home/maxeler/asplos16/benchmarks/kmeans/RunRules/DFE/dist/bin/engine/MainStateMachine$States.class
   [delete] Deleting /home/maxeler/asplos16/benchmarks/kmeans/RunRules/DFE/dist/bin/engine/x606x617_ParallelStateMachine$States.class
   [delete] Deleting /home/maxeler/asplos16/benchmarks/kmeans/RunRules/DFE/dist/bin/engine/KLib_x695.class
   [delete] Deleting /home/maxeler/asplos16/benchmarks/kmeans/RunRules/DFE/dist/bin/engine/BaseKernelLib.class
   [delete] Deleting /home/maxeler/asplos16/benchmarks/kmeans/RunRules/DFE/dist/bin/engine/BlockSM.class
   [delete] Deleting /home/maxeler/asplos16/benchmarks/kmeans/RunRules/DFE/dist/bin/engine/CtrChainLib.class
   [delete] Deleting /home/maxeler/asplos16/benchmarks/kmeans/RunRules/DFE/dist/bin/engine/BlockStorerLib.class
   [delete] Deleting /home/maxeler/asplos16/benchmarks/kmeans/RunRules/DFE/dist/bin/engine/BlockStorer.maxj.bak
   [delete] Deleting /home/maxeler/asplos16/benchmarks/kmeans/RunRules/DFE/dist/bin/engine/BlockLoader.maxj.bak
   [delete] Deleting /home/maxeler/asplos16/benchmarks/kmeans/RunRules/DFE/dist/bin/engine/x646_StateMachine$States.class
   [delete] Deleting /home/maxeler/asplos16/benchmarks/kmeans/RunRules/DFE/dist/bin/engine/x646_StateMachine.class
   [delete] Deleting /home/maxeler/asplos16/benchmarks/kmeans/RunRules/DFE/dist/bin/engine/DblBufStateMachine$States.class
   [delete] Deleting /home/maxeler/asplos16/benchmarks/kmeans/RunRules/DFE/dist/bin/engine/KLib_x8.class
   [delete] Deleting /home/maxeler/asplos16/benchmarks/kmeans/RunRules/DFE/dist/bin/engine/DblBufKernelLib_np.class
   [delete] Deleting /home/maxeler/asplos16/benchmarks/kmeans/RunRules/DFE/dist/bin/engine/x646x693_ParallelStateMachine$States.class
   [delete] Deleting /home/maxeler/asplos16/benchmarks/kmeans/RunRules/DFE/dist/bin/engine/DelayLib.class
   [delete] Deleting /home/maxeler/asplos16/benchmarks/kmeans/RunRules/DFE/dist/bin/engine/x606x617_ParallelStateMachine.class
   [delete] Deleting /home/maxeler/asplos16/benchmarks/kmeans/RunRules/DFE/dist/bin/engine/BlockSM$States.class
   [delete] Deleting /home/maxeler/asplos16/benchmarks/kmeans/RunRules/DFE/dist/bin/engine/MatmultKernel.class
   [delete] Deleting /home/maxeler/asplos16/benchmarks/kmeans/RunRules/DFE/dist/bin/engine/KLib_x7.class
   [delete] Deleting /home/maxeler/asplos16/benchmarks/kmeans/RunRules/DFE/dist/bin/engine/x695.notworking
   [delete] Deleting /home/maxeler/asplos16/benchmarks/kmeans/RunRules/DFE/dist/bin/engine/MatmultManager.class
   [delete] Deleting /home/maxeler/asplos16/benchmarks/kmeans/RunRules/DFE/dist/bin/engine/DblBufStateMachine.class
   [delete] Deleting directory /home/maxeler/asplos16/benchmarks/kmeans/RunRules/DFE/dist/bin/engine
   [delete] Deleting directory /home/maxeler/asplos16/benchmarks/kmeans/RunRules/DFE/dist/bin
   [delete] Deleting directory /home/maxeler/asplos16/benchmarks/kmeans/RunRules/DFE/dist

build:
    [mkdir] Created dir: /home/maxeler/asplos16/benchmarks/kmeans/RunRules/DFE/dist
    [mkdir] Created dir: /home/maxeler/asplos16/benchmarks/kmeans/RunRules/DFE/dist/bin
     [copy] engine/.x1526_top.maxj.swp added as engine/.x1526_top.maxj.swp doesn't exist.
     [copy] engine/x1474x1475.maxj.noneed added as engine/x1474x1475.maxj.noneed doesn't exist.
     [copy] Copying 2 files to /home/maxeler/asplos16/benchmarks/kmeans/RunRules/DFE/dist/bin
     [copy] Copying /home/maxeler/asplos16/benchmarks/kmeans/EngineCode/src/engine/x1474x1475.maxj.noneed to /home/maxeler/asplos16/benchmarks/kmeans/RunRules/DFE/dist/bin/engine/x1474x1475.maxj.noneed
     [copy] Copying /home/maxeler/asplos16/benchmarks/kmeans/EngineCode/src/engine/.x1526_top.maxj.swp to /home/maxeler/asplos16/benchmarks/kmeans/RunRules/DFE/dist/bin/engine/.x1526_top.maxj.swp
[maxjcompiler] 
[maxjcompiler] 
[maxjcompiler] Compiling to folder /home/maxeler/asplos16/benchmarks/kmeans/RunRules/DFE/dist/bin
[maxjcompiler] 
[maxjcompiler] Compiling files and folders:
[maxjcompiler] /home/maxeler/asplos16/benchmarks/kmeans/EngineCode/src
[maxjcompiler] 
[maxjcompiler] Compiler options:
[maxjcompiler] -noExit
[maxjcompiler] -classpath
[maxjcompiler] /opt/maxeler/maxcompiler-2014.2/lib/MaxCompiler.jar
[maxjcompiler] -d
[maxjcompiler] /home/maxeler/asplos16/benchmarks/kmeans/RunRules/DFE/dist/bin
[maxjcompiler] ----------
[maxjcompiler] 1. WARNING in /home/maxeler/asplos16/benchmarks/kmeans/EngineCode/src/engine/x1526_SeqStateMachine.maxj (at line 56)
[maxjcompiler] 	DFEsmValueType counterType = dfeUInt(32);
[maxjcompiler] 	               ^^^^^^^^^^^
[maxjcompiler] The local variable counterType is never read
[maxjcompiler] ----------
[maxjcompiler] ----------
[maxjcompiler] 2. WARNING in /home/maxeler/asplos16/benchmarks/kmeans/EngineCode/src/engine/CtrChainLib.maxj (at line 6)
[maxjcompiler] 	import com.maxeler.maxcompiler.v2.kernelcompiler.SMIO;
[maxjcompiler] 	       ^^^^^^^^^^^^^^^^^^^^^^^^^^^^^^^^^^^^^^^^^^^^^^
[maxjcompiler] The import com.maxeler.maxcompiler.v2.kernelcompiler.SMIO is never used
[maxjcompiler] ----------
[maxjcompiler] 3. WARNING in /home/maxeler/asplos16/benchmarks/kmeans/EngineCode/src/engine/CtrChainLib.maxj (at line 7)
[maxjcompiler] 	import com.maxeler.maxcompiler.v2.kernelcompiler.stdlib.core.CounterChain;
[maxjcompiler] 	       ^^^^^^^^^^^^^^^^^^^^^^^^^^^^^^^^^^^^^^^^^^^^^^^^^^^^^^^^^^^^^^^^^^
[maxjcompiler] The import com.maxeler.maxcompiler.v2.kernelcompiler.stdlib.core.CounterChain is never used
[maxjcompiler] ----------
[maxjcompiler] 4. WARNING in /home/maxeler/asplos16/benchmarks/kmeans/EngineCode/src/engine/CtrChainLib.maxj (at line 8)
[maxjcompiler] 	import com.maxeler.maxcompiler.v2.utils.MathUtils;
[maxjcompiler] 	       ^^^^^^^^^^^^^^^^^^^^^^^^^^^^^^^^^^^^^^^^^^
[maxjcompiler] The import com.maxeler.maxcompiler.v2.utils.MathUtils is never used
[maxjcompiler] ----------
[maxjcompiler] ----------
[maxjcompiler] 5. WARNING in /home/maxeler/asplos16/benchmarks/kmeans/EngineCode/src/engine/SumRowsKernel.maxj (at line 3)
[maxjcompiler] 	import com.maxeler.maxcompiler.v2.kernelcompiler.stdlib.core.Count.Counter;
[maxjcompiler] 	       ^^^^^^^^^^^^^^^^^^^^^^^^^^^^^^^^^^^^^^^^^^^^^^^^^^^^^^^^^^^^^^^^^^^
[maxjcompiler] The import com.maxeler.maxcompiler.v2.kernelcompiler.stdlib.core.Count.Counter is never used
[maxjcompiler] ----------
[maxjcompiler] 6. WARNING in /home/maxeler/asplos16/benchmarks/kmeans/EngineCode/src/engine/SumRowsKernel.maxj (at line 4)
[maxjcompiler] 	import com.maxeler.maxcompiler.v2.kernelcompiler.stdlib.core.CounterChain;
[maxjcompiler] 	       ^^^^^^^^^^^^^^^^^^^^^^^^^^^^^^^^^^^^^^^^^^^^^^^^^^^^^^^^^^^^^^^^^^
[maxjcompiler] The import com.maxeler.maxcompiler.v2.kernelcompiler.stdlib.core.CounterChain is never used
[maxjcompiler] ----------
[maxjcompiler] 7. WARNING in /home/maxeler/asplos16/benchmarks/kmeans/EngineCode/src/engine/SumRowsKernel.maxj (at line 6)
[maxjcompiler] 	import com.maxeler.maxcompiler.v2.kernelcompiler.stdlib.core.Count.Params;
[maxjcompiler] 	       ^^^^^^^^^^^^^^^^^^^^^^^^^^^^^^^^^^^^^^^^^^^^^^^^^^^^^^^^^^^^^^^^^^
[maxjcompiler] The import com.maxeler.maxcompiler.v2.kernelcompiler.stdlib.core.Count.Params is never used
[maxjcompiler] ----------
[maxjcompiler] 8. WARNING in /home/maxeler/asplos16/benchmarks/kmeans/EngineCode/src/engine/SumRowsKernel.maxj (at line 7)
[maxjcompiler] 	import com.maxeler.maxcompiler.v2.kernelcompiler.stdlib.memory.Memory;
[maxjcompiler] 	       ^^^^^^^^^^^^^^^^^^^^^^^^^^^^^^^^^^^^^^^^^^^^^^^^^^^^^^^^^^^^^^
[maxjcompiler] The import com.maxeler.maxcompiler.v2.kernelcompiler.stdlib.memory.Memory is never used
[maxjcompiler] ----------
[maxjcompiler] 9. WARNING in /home/maxeler/asplos16/benchmarks/kmeans/EngineCode/src/engine/SumRowsKernel.maxj (at line 12)
[maxjcompiler] 	import com.maxeler.maxcompiler.v2.utils.MathUtils;
[maxjcompiler] 	       ^^^^^^^^^^^^^^^^^^^^^^^^^^^^^^^^^^^^^^^^^^
[maxjcompiler] The import com.maxeler.maxcompiler.v2.utils.MathUtils is never used
[maxjcompiler] ----------
[maxjcompiler] 10. WARNING in /home/maxeler/asplos16/benchmarks/kmeans/EngineCode/src/engine/SumRowsKernel.maxj (at line 13)
[maxjcompiler] 	import com.maxeler.maxcompiler.v2.utils.Bits;
[maxjcompiler] 	       ^^^^^^^^^^^^^^^^^^^^^^^^^^^^^^^^^^^^^
[maxjcompiler] The import com.maxeler.maxcompiler.v2.utils.Bits is never used
[maxjcompiler] ----------
[maxjcompiler] 11. WARNING in /home/maxeler/asplos16/benchmarks/kmeans/EngineCode/src/engine/SumRowsKernel.maxj (at line 14)
[maxjcompiler] 	import com.maxeler.maxcompiler.v2.kernelcompiler.stdlib.core.CounterChain;
[maxjcompiler] 	       ^^^^^^^^^^^^^^^^^^^^^^^^^^^^^^^^^^^^^^^^^^^^^^^^^^^^^^^^^^^^^^^^^^
[maxjcompiler] The import com.maxeler.maxcompiler.v2.kernelcompiler.stdlib.core.CounterChain is never used
[maxjcompiler] ----------
[maxjcompiler] 12. WARNING in /home/maxeler/asplos16/benchmarks/kmeans/EngineCode/src/engine/SumRowsKernel.maxj (at line 17)
[maxjcompiler] 	import java.util.Random;
[maxjcompiler] 	       ^^^^^^^^^^^^^^^^
[maxjcompiler] The import java.util.Random is never used
[maxjcompiler] ----------
[maxjcompiler] ----------
[maxjcompiler] 13. WARNING in /home/maxeler/asplos16/benchmarks/kmeans/EngineCode/src/engine/x1401x1407_ParallelStateMachine.maxj (at line 42)
[maxjcompiler] 	DFEsmValueType counterType = dfeUInt(32);
[maxjcompiler] 	               ^^^^^^^^^^^
[maxjcompiler] The local variable counterType is never read
[maxjcompiler] ----------
[maxjcompiler] ----------
[maxjcompiler] 14. WARNING in /home/maxeler/asplos16/benchmarks/kmeans/EngineCode/src/engine/DelayLib.maxj (at line 5)
[maxjcompiler] 	import com.maxeler.maxcompiler.v2.kernelcompiler.types.base.DFEType;
[maxjcompiler] 	       ^^^^^^^^^^^^^^^^^^^^^^^^^^^^^^^^^^^^^^^^^^^^^^^^^^^^^^^^^^^^
[maxjcompiler] The import com.maxeler.maxcompiler.v2.kernelcompiler.types.base.DFEType is never used
[maxjcompiler] ----------
[maxjcompiler] ----------
[maxjcompiler] 15. WARNING in /home/maxeler/asplos16/benchmarks/kmeans/EngineCode/src/engine/DblRegFileLib.maxj (at line 5)
[maxjcompiler] 	import com.maxeler.maxcompiler.v2.kernelcompiler.stdlib.memory.Memory;
[maxjcompiler] 	       ^^^^^^^^^^^^^^^^^^^^^^^^^^^^^^^^^^^^^^^^^^^^^^^^^^^^^^^^^^^^^^
[maxjcompiler] The import com.maxeler.maxcompiler.v2.kernelcompiler.stdlib.memory.Memory is never used
[maxjcompiler] ----------
[maxjcompiler] 16. WARNING in /home/maxeler/asplos16/benchmarks/kmeans/EngineCode/src/engine/DblRegFileLib.maxj (at line 7)
[maxjcompiler] 	import com.maxeler.maxcompiler.v2.utils.MathUtils;
[maxjcompiler] 	       ^^^^^^^^^^^^^^^^^^^^^^^^^^^^^^^^^^^^^^^^^^
[maxjcompiler] The import com.maxeler.maxcompiler.v2.utils.MathUtils is never used
[maxjcompiler] ----------
[maxjcompiler] 17. WARNING in /home/maxeler/asplos16/benchmarks/kmeans/EngineCode/src/engine/DblRegFileLib.maxj (at line 9)
[maxjcompiler] 	import com.maxeler.maxcompiler.v2.kernelcompiler.Optimization;
[maxjcompiler] 	       ^^^^^^^^^^^^^^^^^^^^^^^^^^^^^^^^^^^^^^^^^^^^^^^^^^^^^^
[maxjcompiler] The import com.maxeler.maxcompiler.v2.kernelcompiler.Optimization is never used
[maxjcompiler] ----------
[maxjcompiler] ----------
[maxjcompiler] 18. WARNING in /home/maxeler/asplos16/benchmarks/kmeans/EngineCode/src/engine/SumRowsManager.maxj (at line 13)
[maxjcompiler] 	import com.maxeler.maxcompiler.v2.kernelcompiler.Kernel;
[maxjcompiler] 	       ^^^^^^^^^^^^^^^^^^^^^^^^^^^^^^^^^^^^^^^^^^^^^^^^
[maxjcompiler] The import com.maxeler.maxcompiler.v2.kernelcompiler.Kernel is never used
[maxjcompiler] ----------
[maxjcompiler] 19. WARNING in /home/maxeler/asplos16/benchmarks/kmeans/EngineCode/src/engine/SumRowsManager.maxj (at line 14)
[maxjcompiler] 	import com.maxeler.maxcompiler.v2.managers.standard.Manager;
[maxjcompiler] 	       ^^^^^^^^^^^^^^^^^^^^^^^^^^^^^^^^^^^^^^^^^^^^^^^^^^^^
[maxjcompiler] The import com.maxeler.maxcompiler.v2.managers.standard.Manager is never used
[maxjcompiler] ----------
[maxjcompiler] 20. WARNING in /home/maxeler/asplos16/benchmarks/kmeans/EngineCode/src/engine/SumRowsManager.maxj (at line 15)
[maxjcompiler] 	import com.maxeler.maxcompiler.v2.managers.standard.Manager.MemAccessPattern;
[maxjcompiler] 	       ^^^^^^^^^^^^^^^^^^^^^^^^^^^^^^^^^^^^^^^^^^^^^^^^^^^^^^^^^^^^^^^^^^^^^
[maxjcompiler] The import com.maxeler.maxcompiler.v2.managers.standard.Manager.MemAccessPattern is never used
[maxjcompiler] ----------
[maxjcompiler] 21. WARNING in /home/maxeler/asplos16/benchmarks/kmeans/EngineCode/src/engine/SumRowsManager.maxj (at line 16)
[maxjcompiler] 	import com.maxeler.maxcompiler.v2.managers.standard.Manager.IOType;
[maxjcompiler] 	       ^^^^^^^^^^^^^^^^^^^^^^^^^^^^^^^^^^^^^^^^^^^^^^^^^^^^^^^^^^^
[maxjcompiler] The import com.maxeler.maxcompiler.v2.managers.standard.Manager.IOType is never used
[maxjcompiler] ----------
[maxjcompiler] 22. WARNING in /home/maxeler/asplos16/benchmarks/kmeans/EngineCode/src/engine/SumRowsManager.maxj (at line 34)
[maxjcompiler] 	private static final CPUTypes U64 =    CPUTypes.UINT64;
[maxjcompiler] 	                              ^^^
[maxjcompiler] The field SumRowsManager.U64 is never read locally
[maxjcompiler] ----------
[maxjcompiler] 23. WARNING in /home/maxeler/asplos16/benchmarks/kmeans/EngineCode/src/engine/SumRowsManager.maxj (at line 35)
[maxjcompiler] 	private static final CPUTypes FLOAT  = CPUTypes.FLOAT;
[maxjcompiler] 	                              ^^^^^
[maxjcompiler] The field SumRowsManager.FLOAT is never read locally
[maxjcompiler] ----------
[maxjcompiler] ----------
[maxjcompiler] 24. WARNING in /home/maxeler/asplos16/benchmarks/kmeans/EngineCode/src/engine/BlockStorer.maxj (at line 6)
[maxjcompiler] 	import com.maxeler.maxcompiler.v2.kernelcompiler.stdlib.core.CounterChain;
[maxjcompiler] 	       ^^^^^^^^^^^^^^^^^^^^^^^^^^^^^^^^^^^^^^^^^^^^^^^^^^^^^^^^^^^^^^^^^^
[maxjcompiler] The import com.maxeler.maxcompiler.v2.kernelcompiler.stdlib.core.CounterChain is never used
[maxjcompiler] ----------
[maxjcompiler] 25. WARNING in /home/maxeler/asplos16/benchmarks/kmeans/EngineCode/src/engine/BlockStorer.maxj (at line 11)
[maxjcompiler] 	import com.maxeler.maxcompiler.v2.kernelcompiler.Optimization;
[maxjcompiler] 	       ^^^^^^^^^^^^^^^^^^^^^^^^^^^^^^^^^^^^^^^^^^^^^^^^^^^^^^
[maxjcompiler] The import com.maxeler.maxcompiler.v2.kernelcompiler.Optimization is never used
[maxjcompiler] ----------
[maxjcompiler] 26. WARNING in /home/maxeler/asplos16/benchmarks/kmeans/EngineCode/src/engine/BlockStorer.maxj (at line 77)
[maxjcompiler] 	DFEVar prevMstart = stream.offset(memStart, -1);
[maxjcompiler] 	       ^^^^^^^^^^
[maxjcompiler] The local variable prevMstart is never read
[maxjcompiler] ----------
[maxjcompiler] ----------
[maxjcompiler] 27. WARNING in /home/maxeler/asplos16/benchmarks/kmeans/EngineCode/src/engine/BramLib.maxj (at line 6)
[maxjcompiler] 	import com.maxeler.maxcompiler.v2.kernelcompiler.SMIO;
[maxjcompiler] 	       ^^^^^^^^^^^^^^^^^^^^^^^^^^^^^^^^^^^^^^^^^^^^^^
[maxjcompiler] The import com.maxeler.maxcompiler.v2.kernelcompiler.SMIO is never used
[maxjcompiler] ----------
[maxjcompiler] ----------
[maxjcompiler] 28. WARNING in /home/maxeler/asplos16/benchmarks/kmeans/EngineCode/src/engine/x1421x1414_ParallelStateMachine.maxj (at line 42)
[maxjcompiler] 	DFEsmValueType counterType = dfeUInt(32);
[maxjcompiler] 	               ^^^^^^^^^^^
[maxjcompiler] The local variable counterType is never read
[maxjcompiler] ----------
[maxjcompiler] ----------
[maxjcompiler] 29. WARNING in /home/maxeler/asplos16/benchmarks/kmeans/EngineCode/src/engine/DblBufStateMachine.maxj (at line 48)
[maxjcompiler] 	this.numIter = numIter;
[maxjcompiler] 	^^^^^^^^^^^^^^^^^^^^^^
[maxjcompiler] The assignment to variable numIter has no effect
[maxjcompiler] ----------
[maxjcompiler] ----------
[maxjcompiler] 30. WARNING in /home/maxeler/asplos16/benchmarks/kmeans/EngineCode/src/engine/BaseKernelLib.maxj (at line 2)
[maxjcompiler] 	import com.maxeler.maxcompiler.v2.kernelcompiler.stdlib.core.Count.Counter;
[maxjcompiler] 	       ^^^^^^^^^^^^^^^^^^^^^^^^^^^^^^^^^^^^^^^^^^^^^^^^^^^^^^^^^^^^^^^^^^^
[maxjcompiler] The import com.maxeler.maxcompiler.v2.kernelcompiler.stdlib.core.Count.Counter is never used
[maxjcompiler] ----------
[maxjcompiler] 31. WARNING in /home/maxeler/asplos16/benchmarks/kmeans/EngineCode/src/engine/BaseKernelLib.maxj (at line 3)
[maxjcompiler] 	import com.maxeler.maxcompiler.v2.kernelcompiler.stdlib.core.CounterChain;
[maxjcompiler] 	       ^^^^^^^^^^^^^^^^^^^^^^^^^^^^^^^^^^^^^^^^^^^^^^^^^^^^^^^^^^^^^^^^^^
[maxjcompiler] The import com.maxeler.maxcompiler.v2.kernelcompiler.stdlib.core.CounterChain is never used
[maxjcompiler] ----------
[maxjcompiler] 32. WARNING in /home/maxeler/asplos16/benchmarks/kmeans/EngineCode/src/engine/BaseKernelLib.maxj (at line 4)
[maxjcompiler] 	import com.maxeler.maxcompiler.v2.kernelcompiler.stdlib.core.Count;
[maxjcompiler] 	       ^^^^^^^^^^^^^^^^^^^^^^^^^^^^^^^^^^^^^^^^^^^^^^^^^^^^^^^^^^^
[maxjcompiler] The import com.maxeler.maxcompiler.v2.kernelcompiler.stdlib.core.Count is never used
[maxjcompiler] ----------
[maxjcompiler] 33. WARNING in /home/maxeler/asplos16/benchmarks/kmeans/EngineCode/src/engine/BaseKernelLib.maxj (at line 5)
[maxjcompiler] 	import com.maxeler.maxcompiler.v2.kernelcompiler.stdlib.core.Count.Params;
[maxjcompiler] 	       ^^^^^^^^^^^^^^^^^^^^^^^^^^^^^^^^^^^^^^^^^^^^^^^^^^^^^^^^^^^^^^^^^^
[maxjcompiler] The import com.maxeler.maxcompiler.v2.kernelcompiler.stdlib.core.Count.Params is never used
[maxjcompiler] ----------
[maxjcompiler] 34. WARNING in /home/maxeler/asplos16/benchmarks/kmeans/EngineCode/src/engine/BaseKernelLib.maxj (at line 6)
[maxjcompiler] 	import com.maxeler.maxcompiler.v2.kernelcompiler.stdlib.memory.Memory;
[maxjcompiler] 	       ^^^^^^^^^^^^^^^^^^^^^^^^^^^^^^^^^^^^^^^^^^^^^^^^^^^^^^^^^^^^^^
[maxjcompiler] The import com.maxeler.maxcompiler.v2.kernelcompiler.stdlib.memory.Memory is never used
[maxjcompiler] ----------
[maxjcompiler] 35. WARNING in /home/maxeler/asplos16/benchmarks/kmeans/EngineCode/src/engine/BaseKernelLib.maxj (at line 7)
[maxjcompiler] 	import com.maxeler.maxcompiler.v2.kernelcompiler.Kernel;
[maxjcompiler] 	       ^^^^^^^^^^^^^^^^^^^^^^^^^^^^^^^^^^^^^^^^^^^^^^^^
[maxjcompiler] The import com.maxeler.maxcompiler.v2.kernelcompiler.Kernel is never used
[maxjcompiler] ----------
[maxjcompiler] 36. WARNING in /home/maxeler/asplos16/benchmarks/kmeans/EngineCode/src/engine/BaseKernelLib.maxj (at line 8)
[maxjcompiler] 	import com.maxeler.maxcompiler.v2.kernelcompiler.KernelParameters;
[maxjcompiler] 	       ^^^^^^^^^^^^^^^^^^^^^^^^^^^^^^^^^^^^^^^^^^^^^^^^^^^^^^^^^^
[maxjcompiler] The import com.maxeler.maxcompiler.v2.kernelcompiler.KernelParameters is never used
[maxjcompiler] ----------
[maxjcompiler] 37. WARNING in /home/maxeler/asplos16/benchmarks/kmeans/EngineCode/src/engine/BaseKernelLib.maxj (at line 10)
[maxjcompiler] 	import com.maxeler.maxcompiler.v2.utils.MathUtils;
[maxjcompiler] 	       ^^^^^^^^^^^^^^^^^^^^^^^^^^^^^^^^^^^^^^^^^^
[maxjcompiler] The import com.maxeler.maxcompiler.v2.utils.MathUtils is never used
[maxjcompiler] ----------
[maxjcompiler] 38. WARNING in /home/maxeler/asplos16/benchmarks/kmeans/EngineCode/src/engine/BaseKernelLib.maxj (at line 11)
[maxjcompiler] 	import com.maxeler.maxcompiler.v2.utils.Bits;
[maxjcompiler] 	       ^^^^^^^^^^^^^^^^^^^^^^^^^^^^^^^^^^^^^
[maxjcompiler] The import com.maxeler.maxcompiler.v2.utils.Bits is never used
[maxjcompiler] ----------
[maxjcompiler] 39. WARNING in /home/maxeler/asplos16/benchmarks/kmeans/EngineCode/src/engine/BaseKernelLib.maxj (at line 13)
[maxjcompiler] 	import com.maxeler.maxcompiler.v2.kernelcompiler.stdlib.KernelMath;
[maxjcompiler] 	       ^^^^^^^^^^^^^^^^^^^^^^^^^^^^^^^^^^^^^^^^^^^^^^^^^^^^^^^^^^^
[maxjcompiler] The import com.maxeler.maxcompiler.v2.kernelcompiler.stdlib.KernelMath is never used
[maxjcompiler] ----------
[maxjcompiler] 40. WARNING in /home/maxeler/asplos16/benchmarks/kmeans/EngineCode/src/engine/BaseKernelLib.maxj (at line 15)
[maxjcompiler] 	import com.maxeler.maxcompiler.v2.kernelcompiler.stdlib.core.Stream.OffsetExpr;
[maxjcompiler] 	       ^^^^^^^^^^^^^^^^^^^^^^^^^^^^^^^^^^^^^^^^^^^^^^^^^^^^^^^^^^^^^^^^^^^^^^^
[maxjcompiler] The import com.maxeler.maxcompiler.v2.kernelcompiler.stdlib.core.Stream.OffsetExpr is never used
[maxjcompiler] ----------
[maxjcompiler] 41. WARNING in /home/maxeler/asplos16/benchmarks/kmeans/EngineCode/src/engine/BaseKernelLib.maxj (at line 16)
[maxjcompiler] 	import com.maxeler.maxcompiler.v2.kernelcompiler.stdlib.Reductions;
[maxjcompiler] 	       ^^^^^^^^^^^^^^^^^^^^^^^^^^^^^^^^^^^^^^^^^^^^^^^^^^^^^^^^^^^
[maxjcompiler] The import com.maxeler.maxcompiler.v2.kernelcompiler.stdlib.Reductions is never used
[maxjcompiler] ----------
[maxjcompiler] 42. WARNING in /home/maxeler/asplos16/benchmarks/kmeans/EngineCode/src/engine/BaseKernelLib.maxj (at line 17)
[maxjcompiler] 	import com.maxeler.maxcompiler.v2.kernelcompiler.SMIO;
[maxjcompiler] 	       ^^^^^^^^^^^^^^^^^^^^^^^^^^^^^^^^^^^^^^^^^^^^^^
[maxjcompiler] The import com.maxeler.maxcompiler.v2.kernelcompiler.SMIO is never used
[maxjcompiler] ----------
[maxjcompiler] 43. WARNING in /home/maxeler/asplos16/benchmarks/kmeans/EngineCode/src/engine/BaseKernelLib.maxj (at line 18)
[maxjcompiler] 	import com.maxeler.maxcompiler.v2.kernelcompiler.stdlib.Accumulator;
[maxjcompiler] 	       ^^^^^^^^^^^^^^^^^^^^^^^^^^^^^^^^^^^^^^^^^^^^^^^^^^^^^^^^^^^^
[maxjcompiler] The import com.maxeler.maxcompiler.v2.kernelcompiler.stdlib.Accumulator is never used
[maxjcompiler] ----------
[maxjcompiler] ----------
[maxjcompiler] 44. WARNING in /home/maxeler/asplos16/benchmarks/kmeans/EngineCode/src/engine/BlockLoader.maxj (at line 6)
[maxjcompiler] 	import com.maxeler.maxcompiler.v2.kernelcompiler.stdlib.core.CounterChain;
[maxjcompiler] 	       ^^^^^^^^^^^^^^^^^^^^^^^^^^^^^^^^^^^^^^^^^^^^^^^^^^^^^^^^^^^^^^^^^^
[maxjcompiler] The import com.maxeler.maxcompiler.v2.kernelcompiler.stdlib.core.CounterChain is never used
[maxjcompiler] ----------
[maxjcompiler] 45. WARNING in /home/maxeler/asplos16/benchmarks/kmeans/EngineCode/src/engine/BlockLoader.maxj (at line 11)
[maxjcompiler] 	import com.maxeler.maxcompiler.v2.kernelcompiler.Optimization;
[maxjcompiler] 	       ^^^^^^^^^^^^^^^^^^^^^^^^^^^^^^^^^^^^^^^^^^^^^^^^^^^^^^
[maxjcompiler] The import com.maxeler.maxcompiler.v2.kernelcompiler.Optimization is never used
[maxjcompiler] ----------
[maxjcompiler] ----------
[maxjcompiler] 46. WARNING in /home/maxeler/asplos16/benchmarks/kmeans/EngineCode/src/engine/x1526_top.maxj (at line 2)
[maxjcompiler] 	import com.maxeler.maxcompiler.v2.kernelcompiler.stdlib.core.Count.Counter;
[maxjcompiler] 	       ^^^^^^^^^^^^^^^^^^^^^^^^^^^^^^^^^^^^^^^^^^^^^^^^^^^^^^^^^^^^^^^^^^^
[maxjcompiler] The import com.maxeler.maxcompiler.v2.kernelcompiler.stdlib.core.Count.Counter is never used
[maxjcompiler] ----------
[maxjcompiler] 47. WARNING in /home/maxeler/asplos16/benchmarks/kmeans/EngineCode/src/engine/x1526_top.maxj (at line 4)
[maxjcompiler] 	import com.maxeler.maxcompiler.v2.kernelcompiler.stdlib.core.Count;
[maxjcompiler] 	       ^^^^^^^^^^^^^^^^^^^^^^^^^^^^^^^^^^^^^^^^^^^^^^^^^^^^^^^^^^^
[maxjcompiler] The import com.maxeler.maxcompiler.v2.kernelcompiler.stdlib.core.Count is never used
[maxjcompiler] ----------
[maxjcompiler] 48. WARNING in /home/maxeler/asplos16/benchmarks/kmeans/EngineCode/src/engine/x1526_top.maxj (at line 5)
[maxjcompiler] 	import com.maxeler.maxcompiler.v2.kernelcompiler.stdlib.core.Count.Params;
[maxjcompiler] 	       ^^^^^^^^^^^^^^^^^^^^^^^^^^^^^^^^^^^^^^^^^^^^^^^^^^^^^^^^^^^^^^^^^^
[maxjcompiler] The import com.maxeler.maxcompiler.v2.kernelcompiler.stdlib.core.Count.Params is never used
[maxjcompiler] ----------
[maxjcompiler] 49. WARNING in /home/maxeler/asplos16/benchmarks/kmeans/EngineCode/src/engine/x1526_top.maxj (at line 6)
[maxjcompiler] 	import com.maxeler.maxcompiler.v2.kernelcompiler.stdlib.memory.Memory;
[maxjcompiler] 	       ^^^^^^^^^^^^^^^^^^^^^^^^^^^^^^^^^^^^^^^^^^^^^^^^^^^^^^^^^^^^^^
[maxjcompiler] The import com.maxeler.maxcompiler.v2.kernelcompiler.stdlib.memory.Memory is never used
[maxjcompiler] ----------
[maxjcompiler] 50. WARNING in /home/maxeler/asplos16/benchmarks/kmeans/EngineCode/src/engine/x1526_top.maxj (at line 7)
[maxjcompiler] 	import com.maxeler.maxcompiler.v2.kernelcompiler.Kernel;
[maxjcompiler] 	       ^^^^^^^^^^^^^^^^^^^^^^^^^^^^^^^^^^^^^^^^^^^^^^^^
[maxjcompiler] The import com.maxeler.maxcompiler.v2.kernelcompiler.Kernel is never used
[maxjcompiler] ----------
[maxjcompiler] 51. WARNING in /home/maxeler/asplos16/benchmarks/kmeans/EngineCode/src/engine/x1526_top.maxj (at line 8)
[maxjcompiler] 	import com.maxeler.maxcompiler.v2.kernelcompiler.KernelParameters;
[maxjcompiler] 	       ^^^^^^^^^^^^^^^^^^^^^^^^^^^^^^^^^^^^^^^^^^^^^^^^^^^^^^^^^^
[maxjcompiler] The import com.maxeler.maxcompiler.v2.kernelcompiler.KernelParameters is never used
[maxjcompiler] ----------
[maxjcompiler] 52. WARNING in /home/maxeler/asplos16/benchmarks/kmeans/EngineCode/src/engine/x1526_top.maxj (at line 11)
[maxjcompiler] 	import com.maxeler.maxcompiler.v2.utils.Bits;
[maxjcompiler] 	       ^^^^^^^^^^^^^^^^^^^^^^^^^^^^^^^^^^^^^
[maxjcompiler] The import com.maxeler.maxcompiler.v2.utils.Bits is never used
[maxjcompiler] ----------
[maxjcompiler] 53. WARNING in /home/maxeler/asplos16/benchmarks/kmeans/EngineCode/src/engine/x1526_top.maxj (at line 13)
[maxjcompiler] 	import com.maxeler.maxcompiler.v2.kernelcompiler.stdlib.KernelMath;
[maxjcompiler] 	       ^^^^^^^^^^^^^^^^^^^^^^^^^^^^^^^^^^^^^^^^^^^^^^^^^^^^^^^^^^^
[maxjcompiler] The import com.maxeler.maxcompiler.v2.kernelcompiler.stdlib.KernelMath is never used
[maxjcompiler] ----------
[maxjcompiler] 54. WARNING in /home/maxeler/asplos16/benchmarks/kmeans/EngineCode/src/engine/x1526_top.maxj (at line 14)
[maxjcompiler] 	import com.maxeler.maxcompiler.v2.kernelcompiler.types.base.DFEType;
[maxjcompiler] 	       ^^^^^^^^^^^^^^^^^^^^^^^^^^^^^^^^^^^^^^^^^^^^^^^^^^^^^^^^^^^^
[maxjcompiler] The import com.maxeler.maxcompiler.v2.kernelcompiler.types.base.DFEType is never used
[maxjcompiler] ----------
[maxjcompiler] 54 problems (54 warnings)

all:
      [ant] Exiting /home/maxeler/asplos16/benchmarks/kmeans/RunRules/DFE/Project_Build.xml.

run:
     [java] Executing '/usr/lib/jvm/java-1.7.0-openjdk-1.7.0.79.x86_64/jre/bin/java' with arguments:
     [java] '-Xmx2048m'
     [java] '-classpath'
     [java] '/home/maxeler/asplos16/benchmarks/kmeans/RunRules/DFE/dist/bin:/opt/maxeler/maxcompiler-2014.2/lib/MaxCompiler.jar'
     [java] 'engine.SumRowsManager'
     [java] 
     [java] The ' characters around the executable and arguments are
     [java] not part of the command.
     [java] Setting environment variable: MAXSOURCEDIRS=src
     [java] Sun 11:11: MaxCompiler version: 2014.2
     [java] Sun 11:11: Build "SumRows" start time: Sun Aug 09 11:11:12 BST 2015
     [java] Sun 11:11: Main build process running as user maxeler on host maxnode7795.localdomain
     [java] Sun 11:11: Build location: /home/maxeler/asplos16/benchmarks/kmeans/RunRules/DFE/maxfiles/SumRows_MAIA_DFE
     [java] Sun 11:11: Detailed build log available in "_build.log"
     [java] Sun 11:11: 
     [java] Sun 11:11: ENGINE BUILD PARAMETERS
     [java] Sun 11:11: 	 Build name: SumRows_MAIA_DFE
     [java] Sun 11:11: 	   DFEModel: MAIA           
     [java] Sun 11:11: 	maxFileName: SumRows         
     [java] Sun 11:11: 	     target: DFE            
     [java] Sun 11:11: 	 enableMPCX: false          
     [java] Sun 11:11: Instantiating kernel "SumRowsKernel"
     [java] Sun 11:11: WARNING: Floating-point casts ignore set rounding mode and use TONEAREVEN rounding only.
     [java] Sun 11:11: 
     [java] Sun 11:11: Compiling kernel "SumRowsKernel"
     [java] Sun 11:11: WARNING: Warning (UNCONNECTED_DESIGN_ELEMENT):
     [java] Sun 11:11: WARNING: Unconnected elements in design 'SumRowsKernel'
     [java] Sun 11:11: WARNING: details in : /home/maxeler/asplos16/benchmarks/kmeans/RunRules/DFE/maxfiles/SumRows_MAIA_DFE/scratch/SumRowsKernel_graph_warnings.txt
     [java] Sun 11:11: Generating input files (VHDL, netlists, MegaWizard/CoreGen)
     [java] Sun 11:15: WARNING: Ignoring printf statements in VHDL codegen.
     [java] Sun 11:15: Running back-end  build (16 phases)
     [java] Sun 11:15: (1/16) - Prepare MaxFile Data (GenerateMaxFileDataFile)
     [java] Sun 11:15: (2/16) - Prepare for Placement (QuartusMap)
     [java] Sun 11:36: (3/16) - Generate Incremental Netlist (QuartusCdb)
     [java] Sun 11:38: (4/16) - Generate Resource Report (AlteraResourceUsageBuildPass)
     [java] Sun 11:38: (5/16) - Generate Annotated Source Code (AlteraResourceAnnotationBuildPass)
     [java] Sun 11:38: (6/16) - Analyse Resource Usage (AlteraResourceCounterPass)
     [java] Sun 11:38: 
     [java] Sun 11:38: About to start chip vendor Map/Place/Route toolflow. This will take some time.
     [java] Sun 11:38: For this compile, we estimate this process may take up to 1 hour.
     [java] Sun 11:38: We recommend running in simulation to verify correctness before building hardware.
     [java] Sun 11:38: 
     [java] Sun 11:38: PRELIMINARY RESOURCE USAGE
     [java] Sun 11:38: Logic utilization:      71733 / 262400   (27.34%)
     [java] Sun 11:38: Multipliers (18x18):       22 / 3926     (0.56%)
     [java] Sun 11:38: Block memory (bits):  8095218 / 52572160 (15.40%)
     [java] Sun 11:38: 
     [java] Sun 11:38: (7/16) - Place and Route DFE (AlteraMPPR)
     [java] Sun 11:38: Executing MPPR with 4 cost tables and 4 threads.
     [java] Sun 11:38: MPPR: Starting 4 cost tables
     [java] Sun 13:44: MPPR: Cost table 1 met timing with score 0 (best score 0)
     [java] Sun 13:44: (8/16) - Generate Configuration (QuartusAsm)
     [java] Sun 13:47: (9/16) - Convert Programming File (QuartusCpf)
     [java] Sun 13:47: (10/16) - Update Checksum (UpdateChecksumBuildPass)
     [java] Sun 13:47: (11/16) - Generate Incremental Netlist (QuartusCdb)
     [java] Sun 13:49: (12/16) - Generate Configuration (QuartusAsm)
     [java] Sun 13:52: (13/16) - Convert Programming File (QuartusCpf)
     [java] Sun 13:52: (14/16) - Generate Resource Report (AlteraResourceUsageBuildPass)
     [java] Sun 13:52: (15/16) - Generate Annotated Source Code (AlteraResourceAnnotationBuildPass)
     [java] Sun 13:52: (16/16) - Generate MaxFile (GenerateMaxFileAltera)
     [java] Sun 13:53: 
     [java] Sun 13:53: FINAL RESOURCE USAGE
     [java] Sun 13:53: Logic utilization:    68538 / 262400 (26.12%)
     [java] Sun 13:53:   Primary FFs:       113151 / 524800 (21.56%)
     [java] Sun 13:53:   Secondary FFs:       6309 / 524800 (1.20%)
     [java] Sun 13:53: Multipliers (18x18):     22 / 3926   (0.56%)
     [java] Sun 13:53:   DSP blocks:            11 / 1963   (0.56%)
     [java] Sun 13:53: Block memory (M20K):    582 / 2567   (22.67%)
     [java] Sun 13:53: 
     [java] Sun 13:53: MaxFile: /home/maxeler/asplos16/benchmarks/kmeans/RunRules/DFE/maxfiles/SumRows_MAIA_DFE/results/SumRows.max (MD5Sum: fcc527a9d4ceff492d3dcd89e05cbffb)
     [java] Sun 13:53: Build completed: Sun Aug 09 13:53:03 BST 2015 (took 2 hours, 41 mins, 50 secs)

BUILD SUCCESSFUL
Total time: 161 minutes 51 seconds
