Apache Ant version 1.7.1 compiled on August 24 2010
Buildfile: GDA.xml
Detected Java version: 1.6 in: /usr/lib/jvm/java-1.7.0-openjdk-1.7.0.79.x86_64/jre
Detected OS: Linux
parsing buildfile /home/maxeler/asplos16/benchmarks/GDA/RunRules/Simulation/GDA.xml with URI = file:/home/maxeler/asplos16/benchmarks/GDA/RunRules/Simulation/GDA.xml
Project base dir set to: /home/maxeler/asplos16/benchmarks/GDA/EngineCode
[antlib:org.apache.tools.ant] Could not load definitions from resource org/apache/tools/ant/antlib.xml. It could not be found.
 [property] Loading Environment env.
Property "-*-command-variables-*-" has not been set
Property "env.MAXCOMPILERJCP" has not been set
Build sequence for target(s) `run' is [build, run]
Complete build sequence is [build, run, help, clean, all, jar, ]

build:
Detected Java version: 1.6 in: /usr/lib/jvm/java-1.7.0-openjdk-1.7.0.79.x86_64/jre
Detected OS: Linux
      [ant] calling target(s) [default] in build file /home/maxeler/asplos16/benchmarks/GDA/RunRules/Simulation/Project_Build.xml
parsing buildfile /home/maxeler/asplos16/benchmarks/GDA/RunRules/Simulation/Project_Build.xml with URI = file:/home/maxeler/asplos16/benchmarks/GDA/RunRules/Simulation/Project_Build.xml
Project base dir set to: /home/maxeler/asplos16/benchmarks/GDA/EngineCode
 [property] Loading Environment env.
Property "-*-command-variables-*-" has not been set
Property "env.MAXCOMPILERJCP" has not been set
      [ant] Entering /home/maxeler/asplos16/benchmarks/GDA/RunRules/Simulation/Project_Build.xml...
Build sequence for target(s) `all' is [clean, build, all]
Complete build sequence is [clean, build, all, ]

clean:
   [delete] Deleting directory /home/maxeler/asplos16/benchmarks/GDA/RunRules/Simulation/dist
   [delete] Deleting /home/maxeler/asplos16/benchmarks/GDA/RunRules/Simulation/dist/bin/engine/BlockLoaderLib.class
   [delete] Deleting /home/maxeler/asplos16/benchmarks/GDA/RunRules/Simulation/dist/bin/engine/BramLib.class
   [delete] Deleting /home/maxeler/asplos16/benchmarks/GDA/RunRules/Simulation/dist/bin/engine/x261_StateMachine$States.class
   [delete] Deleting /home/maxeler/asplos16/benchmarks/GDA/RunRules/Simulation/dist/bin/engine/DblRegFileLib.class
   [delete] Deleting /home/maxeler/asplos16/benchmarks/GDA/RunRules/Simulation/dist/bin/engine/MainStateMachine.class
   [delete] Deleting /home/maxeler/asplos16/benchmarks/GDA/RunRules/Simulation/dist/bin/engine/MainStateMachine$States.class
   [delete] Deleting /home/maxeler/asplos16/benchmarks/GDA/RunRules/Simulation/dist/bin/engine/BaseKernelLib.class
   [delete] Deleting /home/maxeler/asplos16/benchmarks/GDA/RunRules/Simulation/dist/bin/engine/GDAKernel.class
   [delete] Deleting /home/maxeler/asplos16/benchmarks/GDA/RunRules/Simulation/dist/bin/engine/BlockSM.class
   [delete] Deleting /home/maxeler/asplos16/benchmarks/GDA/RunRules/Simulation/dist/bin/engine/CtrChainLib.class
   [delete] Deleting /home/maxeler/asplos16/benchmarks/GDA/RunRules/Simulation/dist/bin/engine/BlockStorerLib.class
   [delete] Deleting /home/maxeler/asplos16/benchmarks/GDA/RunRules/Simulation/dist/bin/engine/KLib_x261.class
   [delete] Deleting /home/maxeler/asplos16/benchmarks/GDA/RunRules/Simulation/dist/bin/engine/TopKernel.class
   [delete] Deleting /home/maxeler/asplos16/benchmarks/GDA/RunRules/Simulation/dist/bin/engine/x230x235x240x245_ParallelStateMachine$States.class
   [delete] Deleting /home/maxeler/asplos16/benchmarks/GDA/RunRules/Simulation/dist/bin/engine/DblBufStateMachine$States.class
   [delete] Deleting /home/maxeler/asplos16/benchmarks/GDA/RunRules/Simulation/dist/bin/engine/DblBufKernelLib_np.class
   [delete] Deleting /home/maxeler/asplos16/benchmarks/GDA/RunRules/Simulation/dist/bin/engine/DelayLib.class
   [delete] Deleting /home/maxeler/asplos16/benchmarks/GDA/RunRules/Simulation/dist/bin/engine/BlockSM$States.class
   [delete] Deleting /home/maxeler/asplos16/benchmarks/GDA/RunRules/Simulation/dist/bin/engine/GDAManager.class
   [delete] Deleting /home/maxeler/asplos16/benchmarks/GDA/RunRules/Simulation/dist/bin/engine/x261_StateMachine.class
   [delete] Deleting /home/maxeler/asplos16/benchmarks/GDA/RunRules/Simulation/dist/bin/engine/x230x235x240x245_ParallelStateMachine.class
   [delete] Deleting /home/maxeler/asplos16/benchmarks/GDA/RunRules/Simulation/dist/bin/engine/DblBufStateMachine.class
   [delete] Deleting directory /home/maxeler/asplos16/benchmarks/GDA/RunRules/Simulation/dist/bin/engine
   [delete] Deleting directory /home/maxeler/asplos16/benchmarks/GDA/RunRules/Simulation/dist/bin
   [delete] Deleting directory /home/maxeler/asplos16/benchmarks/GDA/RunRules/Simulation/dist

build:
    [mkdir] Created dir: /home/maxeler/asplos16/benchmarks/GDA/RunRules/Simulation/dist
    [mkdir] Created dir: /home/maxeler/asplos16/benchmarks/GDA/RunRules/Simulation/dist/bin
     [copy] No sources found.
[maxjcompiler] 
[maxjcompiler] 
[maxjcompiler] Compiling to folder /home/maxeler/asplos16/benchmarks/GDA/RunRules/Simulation/dist/bin
[maxjcompiler] 
[maxjcompiler] Compiling files and folders:
[maxjcompiler] /home/maxeler/asplos16/benchmarks/GDA/EngineCode/src
[maxjcompiler] 
[maxjcompiler] Compiler options:
[maxjcompiler] -noExit
[maxjcompiler] -classpath
[maxjcompiler] /opt/maxeler/maxcompiler-2014.2/lib/MaxCompiler.jar
[maxjcompiler] -d
[maxjcompiler] /home/maxeler/asplos16/benchmarks/GDA/RunRules/Simulation/dist/bin
[maxjcompiler] ----------
[maxjcompiler] 1. WARNING in /home/maxeler/asplos16/benchmarks/GDA/EngineCode/src/engine/TopKernel.maxj (at line 2)
[maxjcompiler] 	import com.maxeler.maxcompiler.v2.kernelcompiler.stdlib.core.Count.Counter;
[maxjcompiler] 	       ^^^^^^^^^^^^^^^^^^^^^^^^^^^^^^^^^^^^^^^^^^^^^^^^^^^^^^^^^^^^^^^^^^^
[maxjcompiler] The import com.maxeler.maxcompiler.v2.kernelcompiler.stdlib.core.Count.Counter is never used
[maxjcompiler] ----------
[maxjcompiler] 2. WARNING in /home/maxeler/asplos16/benchmarks/GDA/EngineCode/src/engine/TopKernel.maxj (at line 3)
[maxjcompiler] 	import com.maxeler.maxcompiler.v2.kernelcompiler.stdlib.core.CounterChain;
[maxjcompiler] 	       ^^^^^^^^^^^^^^^^^^^^^^^^^^^^^^^^^^^^^^^^^^^^^^^^^^^^^^^^^^^^^^^^^^
[maxjcompiler] The import com.maxeler.maxcompiler.v2.kernelcompiler.stdlib.core.CounterChain is never used
[maxjcompiler] ----------
[maxjcompiler] 3. WARNING in /home/maxeler/asplos16/benchmarks/GDA/EngineCode/src/engine/TopKernel.maxj (at line 4)
[maxjcompiler] 	import com.maxeler.maxcompiler.v2.kernelcompiler.stdlib.core.Count;
[maxjcompiler] 	       ^^^^^^^^^^^^^^^^^^^^^^^^^^^^^^^^^^^^^^^^^^^^^^^^^^^^^^^^^^^
[maxjcompiler] The import com.maxeler.maxcompiler.v2.kernelcompiler.stdlib.core.Count is never used
[maxjcompiler] ----------
[maxjcompiler] 4. WARNING in /home/maxeler/asplos16/benchmarks/GDA/EngineCode/src/engine/TopKernel.maxj (at line 5)
[maxjcompiler] 	import com.maxeler.maxcompiler.v2.kernelcompiler.stdlib.core.Count.Params;
[maxjcompiler] 	       ^^^^^^^^^^^^^^^^^^^^^^^^^^^^^^^^^^^^^^^^^^^^^^^^^^^^^^^^^^^^^^^^^^
[maxjcompiler] The import com.maxeler.maxcompiler.v2.kernelcompiler.stdlib.core.Count.Params is never used
[maxjcompiler] ----------
[maxjcompiler] 5. WARNING in /home/maxeler/asplos16/benchmarks/GDA/EngineCode/src/engine/TopKernel.maxj (at line 6)
[maxjcompiler] 	import com.maxeler.maxcompiler.v2.kernelcompiler.stdlib.memory.Memory;
[maxjcompiler] 	       ^^^^^^^^^^^^^^^^^^^^^^^^^^^^^^^^^^^^^^^^^^^^^^^^^^^^^^^^^^^^^^
[maxjcompiler] The import com.maxeler.maxcompiler.v2.kernelcompiler.stdlib.memory.Memory is never used
[maxjcompiler] ----------
[maxjcompiler] 6. WARNING in /home/maxeler/asplos16/benchmarks/GDA/EngineCode/src/engine/TopKernel.maxj (at line 9)
[maxjcompiler] 	import com.maxeler.maxcompiler.v2.kernelcompiler.types.base.DFEVar;
[maxjcompiler] 	       ^^^^^^^^^^^^^^^^^^^^^^^^^^^^^^^^^^^^^^^^^^^^^^^^^^^^^^^^^^^
[maxjcompiler] The import com.maxeler.maxcompiler.v2.kernelcompiler.types.base.DFEVar is never used
[maxjcompiler] ----------
[maxjcompiler] 7. WARNING in /home/maxeler/asplos16/benchmarks/GDA/EngineCode/src/engine/TopKernel.maxj (at line 10)
[maxjcompiler] 	import com.maxeler.maxcompiler.v2.utils.MathUtils;
[maxjcompiler] 	       ^^^^^^^^^^^^^^^^^^^^^^^^^^^^^^^^^^^^^^^^^^
[maxjcompiler] The import com.maxeler.maxcompiler.v2.utils.MathUtils is never used
[maxjcompiler] ----------
[maxjcompiler] 8. WARNING in /home/maxeler/asplos16/benchmarks/GDA/EngineCode/src/engine/TopKernel.maxj (at line 11)
[maxjcompiler] 	import com.maxeler.maxcompiler.v2.utils.Bits;
[maxjcompiler] 	       ^^^^^^^^^^^^^^^^^^^^^^^^^^^^^^^^^^^^^
[maxjcompiler] The import com.maxeler.maxcompiler.v2.utils.Bits is never used
[maxjcompiler] ----------
[maxjcompiler] 9. WARNING in /home/maxeler/asplos16/benchmarks/GDA/EngineCode/src/engine/TopKernel.maxj (at line 12)
[maxjcompiler] 	import com.maxeler.maxcompiler.v2.kernelcompiler.KernelLib;
[maxjcompiler] 	       ^^^^^^^^^^^^^^^^^^^^^^^^^^^^^^^^^^^^^^^^^^^^^^^^^^^
[maxjcompiler] The import com.maxeler.maxcompiler.v2.kernelcompiler.KernelLib is never used
[maxjcompiler] ----------
[maxjcompiler] 10. WARNING in /home/maxeler/asplos16/benchmarks/GDA/EngineCode/src/engine/TopKernel.maxj (at line 13)
[maxjcompiler] 	import com.maxeler.maxcompiler.v2.kernelcompiler.stdlib.KernelMath;
[maxjcompiler] 	       ^^^^^^^^^^^^^^^^^^^^^^^^^^^^^^^^^^^^^^^^^^^^^^^^^^^^^^^^^^^
[maxjcompiler] The import com.maxeler.maxcompiler.v2.kernelcompiler.stdlib.KernelMath is never used
[maxjcompiler] ----------
[maxjcompiler] 11. WARNING in /home/maxeler/asplos16/benchmarks/GDA/EngineCode/src/engine/TopKernel.maxj (at line 14)
[maxjcompiler] 	import com.maxeler.maxcompiler.v2.kernelcompiler.types.base.DFEType;
[maxjcompiler] 	       ^^^^^^^^^^^^^^^^^^^^^^^^^^^^^^^^^^^^^^^^^^^^^^^^^^^^^^^^^^^^
[maxjcompiler] The import com.maxeler.maxcompiler.v2.kernelcompiler.types.base.DFEType is never used
[maxjcompiler] ----------
[maxjcompiler] 12. WARNING in /home/maxeler/asplos16/benchmarks/GDA/EngineCode/src/engine/TopKernel.maxj (at line 15)
[maxjcompiler] 	import com.maxeler.maxcompiler.v2.kernelcompiler.stdlib.core.Stream.OffsetExpr;
[maxjcompiler] 	       ^^^^^^^^^^^^^^^^^^^^^^^^^^^^^^^^^^^^^^^^^^^^^^^^^^^^^^^^^^^^^^^^^^^^^^^
[maxjcompiler] The import com.maxeler.maxcompiler.v2.kernelcompiler.stdlib.core.Stream.OffsetExpr is never used
[maxjcompiler] ----------
[maxjcompiler] 13. WARNING in /home/maxeler/asplos16/benchmarks/GDA/EngineCode/src/engine/TopKernel.maxj (at line 16)
[maxjcompiler] 	import com.maxeler.maxcompiler.v2.kernelcompiler.stdlib.Reductions;
[maxjcompiler] 	       ^^^^^^^^^^^^^^^^^^^^^^^^^^^^^^^^^^^^^^^^^^^^^^^^^^^^^^^^^^^
[maxjcompiler] The import com.maxeler.maxcompiler.v2.kernelcompiler.stdlib.Reductions is never used
[maxjcompiler] ----------
[maxjcompiler] 14. WARNING in /home/maxeler/asplos16/benchmarks/GDA/EngineCode/src/engine/TopKernel.maxj (at line 17)
[maxjcompiler] 	import com.maxeler.maxcompiler.v2.kernelcompiler.SMIO;
[maxjcompiler] 	       ^^^^^^^^^^^^^^^^^^^^^^^^^^^^^^^^^^^^^^^^^^^^^^
[maxjcompiler] The import com.maxeler.maxcompiler.v2.kernelcompiler.SMIO is never used
[maxjcompiler] ----------
[maxjcompiler] 15. WARNING in /home/maxeler/asplos16/benchmarks/GDA/EngineCode/src/engine/TopKernel.maxj (at line 18)
[maxjcompiler] 	import com.maxeler.maxcompiler.v2.kernelcompiler.stdlib.Accumulator;
[maxjcompiler] 	       ^^^^^^^^^^^^^^^^^^^^^^^^^^^^^^^^^^^^^^^^^^^^^^^^^^^^^^^^^^^^
[maxjcompiler] The import com.maxeler.maxcompiler.v2.kernelcompiler.stdlib.Accumulator is never used
[maxjcompiler] ----------
[maxjcompiler] ----------
[maxjcompiler] 16. WARNING in /home/maxeler/asplos16/benchmarks/GDA/EngineCode/src/engine/CtrChainLib.maxj (at line 6)
[maxjcompiler] 	import com.maxeler.maxcompiler.v2.kernelcompiler.SMIO;
[maxjcompiler] 	       ^^^^^^^^^^^^^^^^^^^^^^^^^^^^^^^^^^^^^^^^^^^^^^
[maxjcompiler] The import com.maxeler.maxcompiler.v2.kernelcompiler.SMIO is never used
[maxjcompiler] ----------
[maxjcompiler] 17. WARNING in /home/maxeler/asplos16/benchmarks/GDA/EngineCode/src/engine/CtrChainLib.maxj (at line 7)
[maxjcompiler] 	import com.maxeler.maxcompiler.v2.kernelcompiler.stdlib.core.CounterChain;
[maxjcompiler] 	       ^^^^^^^^^^^^^^^^^^^^^^^^^^^^^^^^^^^^^^^^^^^^^^^^^^^^^^^^^^^^^^^^^^
[maxjcompiler] The import com.maxeler.maxcompiler.v2.kernelcompiler.stdlib.core.CounterChain is never used
[maxjcompiler] ----------
[maxjcompiler] 18. WARNING in /home/maxeler/asplos16/benchmarks/GDA/EngineCode/src/engine/CtrChainLib.maxj (at line 8)
[maxjcompiler] 	import com.maxeler.maxcompiler.v2.utils.MathUtils;
[maxjcompiler] 	       ^^^^^^^^^^^^^^^^^^^^^^^^^^^^^^^^^^^^^^^^^^
[maxjcompiler] The import com.maxeler.maxcompiler.v2.utils.MathUtils is never used
[maxjcompiler] ----------
[maxjcompiler] ----------
[maxjcompiler] 19. WARNING in /home/maxeler/asplos16/benchmarks/GDA/EngineCode/src/engine/GDAKernel.maxj (at line 3)
[maxjcompiler] 	import com.maxeler.maxcompiler.v2.kernelcompiler.stdlib.core.Count.Counter;
[maxjcompiler] 	       ^^^^^^^^^^^^^^^^^^^^^^^^^^^^^^^^^^^^^^^^^^^^^^^^^^^^^^^^^^^^^^^^^^^
[maxjcompiler] The import com.maxeler.maxcompiler.v2.kernelcompiler.stdlib.core.Count.Counter is never used
[maxjcompiler] ----------
[maxjcompiler] 20. WARNING in /home/maxeler/asplos16/benchmarks/GDA/EngineCode/src/engine/GDAKernel.maxj (at line 4)
[maxjcompiler] 	import com.maxeler.maxcompiler.v2.kernelcompiler.stdlib.core.CounterChain;
[maxjcompiler] 	       ^^^^^^^^^^^^^^^^^^^^^^^^^^^^^^^^^^^^^^^^^^^^^^^^^^^^^^^^^^^^^^^^^^
[maxjcompiler] The import com.maxeler.maxcompiler.v2.kernelcompiler.stdlib.core.CounterChain is never used
[maxjcompiler] ----------
[maxjcompiler] 21. WARNING in /home/maxeler/asplos16/benchmarks/GDA/EngineCode/src/engine/GDAKernel.maxj (at line 6)
[maxjcompiler] 	import com.maxeler.maxcompiler.v2.kernelcompiler.stdlib.core.Count.Params;
[maxjcompiler] 	       ^^^^^^^^^^^^^^^^^^^^^^^^^^^^^^^^^^^^^^^^^^^^^^^^^^^^^^^^^^^^^^^^^^
[maxjcompiler] The import com.maxeler.maxcompiler.v2.kernelcompiler.stdlib.core.Count.Params is never used
[maxjcompiler] ----------
[maxjcompiler] 22. WARNING in /home/maxeler/asplos16/benchmarks/GDA/EngineCode/src/engine/GDAKernel.maxj (at line 7)
[maxjcompiler] 	import com.maxeler.maxcompiler.v2.kernelcompiler.stdlib.memory.Memory;
[maxjcompiler] 	       ^^^^^^^^^^^^^^^^^^^^^^^^^^^^^^^^^^^^^^^^^^^^^^^^^^^^^^^^^^^^^^
[maxjcompiler] The import com.maxeler.maxcompiler.v2.kernelcompiler.stdlib.memory.Memory is never used
[maxjcompiler] ----------
[maxjcompiler] 23. WARNING in /home/maxeler/asplos16/benchmarks/GDA/EngineCode/src/engine/GDAKernel.maxj (at line 12)
[maxjcompiler] 	import com.maxeler.maxcompiler.v2.utils.MathUtils;
[maxjcompiler] 	       ^^^^^^^^^^^^^^^^^^^^^^^^^^^^^^^^^^^^^^^^^^
[maxjcompiler] The import com.maxeler.maxcompiler.v2.utils.MathUtils is never used
[maxjcompiler] ----------
[maxjcompiler] 24. WARNING in /home/maxeler/asplos16/benchmarks/GDA/EngineCode/src/engine/GDAKernel.maxj (at line 13)
[maxjcompiler] 	import com.maxeler.maxcompiler.v2.utils.Bits;
[maxjcompiler] 	       ^^^^^^^^^^^^^^^^^^^^^^^^^^^^^^^^^^^^^
[maxjcompiler] The import com.maxeler.maxcompiler.v2.utils.Bits is never used
[maxjcompiler] ----------
[maxjcompiler] 25. WARNING in /home/maxeler/asplos16/benchmarks/GDA/EngineCode/src/engine/GDAKernel.maxj (at line 14)
[maxjcompiler] 	import com.maxeler.maxcompiler.v2.kernelcompiler.stdlib.core.CounterChain;
[maxjcompiler] 	       ^^^^^^^^^^^^^^^^^^^^^^^^^^^^^^^^^^^^^^^^^^^^^^^^^^^^^^^^^^^^^^^^^^
[maxjcompiler] The import com.maxeler.maxcompiler.v2.kernelcompiler.stdlib.core.CounterChain is never used
[maxjcompiler] ----------
[maxjcompiler] 26. WARNING in /home/maxeler/asplos16/benchmarks/GDA/EngineCode/src/engine/GDAKernel.maxj (at line 17)
[maxjcompiler] 	import java.util.Random;
[maxjcompiler] 	       ^^^^^^^^^^^^^^^^
[maxjcompiler] The import java.util.Random is never used
[maxjcompiler] ----------
[maxjcompiler] ----------
[maxjcompiler] 27. WARNING in /home/maxeler/asplos16/benchmarks/GDA/EngineCode/src/engine/x261.maxj (at line 2)
[maxjcompiler] 	import com.maxeler.maxcompiler.v2.kernelcompiler.stdlib.core.Count.Counter;
[maxjcompiler] 	       ^^^^^^^^^^^^^^^^^^^^^^^^^^^^^^^^^^^^^^^^^^^^^^^^^^^^^^^^^^^^^^^^^^^
[maxjcompiler] The import com.maxeler.maxcompiler.v2.kernelcompiler.stdlib.core.Count.Counter is never used
[maxjcompiler] ----------
[maxjcompiler] 28. WARNING in /home/maxeler/asplos16/benchmarks/GDA/EngineCode/src/engine/x261.maxj (at line 4)
[maxjcompiler] 	import com.maxeler.maxcompiler.v2.kernelcompiler.stdlib.core.Count;
[maxjcompiler] 	       ^^^^^^^^^^^^^^^^^^^^^^^^^^^^^^^^^^^^^^^^^^^^^^^^^^^^^^^^^^^
[maxjcompiler] The import com.maxeler.maxcompiler.v2.kernelcompiler.stdlib.core.Count is never used
[maxjcompiler] ----------
[maxjcompiler] 29. WARNING in /home/maxeler/asplos16/benchmarks/GDA/EngineCode/src/engine/x261.maxj (at line 5)
[maxjcompiler] 	import com.maxeler.maxcompiler.v2.kernelcompiler.stdlib.core.Count.Params;
[maxjcompiler] 	       ^^^^^^^^^^^^^^^^^^^^^^^^^^^^^^^^^^^^^^^^^^^^^^^^^^^^^^^^^^^^^^^^^^
[maxjcompiler] The import com.maxeler.maxcompiler.v2.kernelcompiler.stdlib.core.Count.Params is never used
[maxjcompiler] ----------
[maxjcompiler] 30. WARNING in /home/maxeler/asplos16/benchmarks/GDA/EngineCode/src/engine/x261.maxj (at line 6)
[maxjcompiler] 	import com.maxeler.maxcompiler.v2.kernelcompiler.stdlib.memory.Memory;
[maxjcompiler] 	       ^^^^^^^^^^^^^^^^^^^^^^^^^^^^^^^^^^^^^^^^^^^^^^^^^^^^^^^^^^^^^^
[maxjcompiler] The import com.maxeler.maxcompiler.v2.kernelcompiler.stdlib.memory.Memory is never used
[maxjcompiler] ----------
[maxjcompiler] 31. WARNING in /home/maxeler/asplos16/benchmarks/GDA/EngineCode/src/engine/x261.maxj (at line 7)
[maxjcompiler] 	import com.maxeler.maxcompiler.v2.kernelcompiler.Kernel;
[maxjcompiler] 	       ^^^^^^^^^^^^^^^^^^^^^^^^^^^^^^^^^^^^^^^^^^^^^^^^
[maxjcompiler] The import com.maxeler.maxcompiler.v2.kernelcompiler.Kernel is never used
[maxjcompiler] ----------
[maxjcompiler] 32. WARNING in /home/maxeler/asplos16/benchmarks/GDA/EngineCode/src/engine/x261.maxj (at line 8)
[maxjcompiler] 	import com.maxeler.maxcompiler.v2.kernelcompiler.KernelParameters;
[maxjcompiler] 	       ^^^^^^^^^^^^^^^^^^^^^^^^^^^^^^^^^^^^^^^^^^^^^^^^^^^^^^^^^^
[maxjcompiler] The import com.maxeler.maxcompiler.v2.kernelcompiler.KernelParameters is never used
[maxjcompiler] ----------
[maxjcompiler] 33. WARNING in /home/maxeler/asplos16/benchmarks/GDA/EngineCode/src/engine/x261.maxj (at line 11)
[maxjcompiler] 	import com.maxeler.maxcompiler.v2.utils.Bits;
[maxjcompiler] 	       ^^^^^^^^^^^^^^^^^^^^^^^^^^^^^^^^^^^^^
[maxjcompiler] The import com.maxeler.maxcompiler.v2.utils.Bits is never used
[maxjcompiler] ----------
[maxjcompiler] 34. WARNING in /home/maxeler/asplos16/benchmarks/GDA/EngineCode/src/engine/x261.maxj (at line 13)
[maxjcompiler] 	import com.maxeler.maxcompiler.v2.kernelcompiler.stdlib.KernelMath;
[maxjcompiler] 	       ^^^^^^^^^^^^^^^^^^^^^^^^^^^^^^^^^^^^^^^^^^^^^^^^^^^^^^^^^^^
[maxjcompiler] The import com.maxeler.maxcompiler.v2.kernelcompiler.stdlib.KernelMath is never used
[maxjcompiler] ----------
[maxjcompiler] 35. WARNING in /home/maxeler/asplos16/benchmarks/GDA/EngineCode/src/engine/x261.maxj (at line 14)
[maxjcompiler] 	import com.maxeler.maxcompiler.v2.kernelcompiler.types.base.DFEType;
[maxjcompiler] 	       ^^^^^^^^^^^^^^^^^^^^^^^^^^^^^^^^^^^^^^^^^^^^^^^^^^^^^^^^^^^^
[maxjcompiler] The import com.maxeler.maxcompiler.v2.kernelcompiler.types.base.DFEType is never used
[maxjcompiler] ----------
[maxjcompiler] 36. WARNING in /home/maxeler/asplos16/benchmarks/GDA/EngineCode/src/engine/x261.maxj (at line 15)
[maxjcompiler] 	import com.maxeler.maxcompiler.v2.kernelcompiler.stdlib.core.Stream.OffsetExpr;
[maxjcompiler] 	       ^^^^^^^^^^^^^^^^^^^^^^^^^^^^^^^^^^^^^^^^^^^^^^^^^^^^^^^^^^^^^^^^^^^^^^^
[maxjcompiler] The import com.maxeler.maxcompiler.v2.kernelcompiler.stdlib.core.Stream.OffsetExpr is never used
[maxjcompiler] ----------
[maxjcompiler] 37. WARNING in /home/maxeler/asplos16/benchmarks/GDA/EngineCode/src/engine/x261.maxj (at line 86)
[maxjcompiler] 	DFEVar x8 = x6 - x7;
[maxjcompiler] 	       ^^
[maxjcompiler] The local variable x8 is never read
[maxjcompiler] ----------
[maxjcompiler] ----------
[maxjcompiler] 38. WARNING in /home/maxeler/asplos16/benchmarks/GDA/EngineCode/src/engine/DelayLib.maxj (at line 5)
[maxjcompiler] 	import com.maxeler.maxcompiler.v2.kernelcompiler.types.base.DFEType;
[maxjcompiler] 	       ^^^^^^^^^^^^^^^^^^^^^^^^^^^^^^^^^^^^^^^^^^^^^^^^^^^^^^^^^^^^
[maxjcompiler] The import com.maxeler.maxcompiler.v2.kernelcompiler.types.base.DFEType is never used
[maxjcompiler] ----------
[maxjcompiler] ----------
[maxjcompiler] 39. WARNING in /home/maxeler/asplos16/benchmarks/GDA/EngineCode/src/engine/GDAManager.maxj (at line 13)
[maxjcompiler] 	import com.maxeler.maxcompiler.v2.kernelcompiler.Kernel;
[maxjcompiler] 	       ^^^^^^^^^^^^^^^^^^^^^^^^^^^^^^^^^^^^^^^^^^^^^^^^
[maxjcompiler] The import com.maxeler.maxcompiler.v2.kernelcompiler.Kernel is never used
[maxjcompiler] ----------
[maxjcompiler] 40. WARNING in /home/maxeler/asplos16/benchmarks/GDA/EngineCode/src/engine/GDAManager.maxj (at line 14)
[maxjcompiler] 	import com.maxeler.maxcompiler.v2.managers.standard.Manager;
[maxjcompiler] 	       ^^^^^^^^^^^^^^^^^^^^^^^^^^^^^^^^^^^^^^^^^^^^^^^^^^^^
[maxjcompiler] The import com.maxeler.maxcompiler.v2.managers.standard.Manager is never used
[maxjcompiler] ----------
[maxjcompiler] 41. WARNING in /home/maxeler/asplos16/benchmarks/GDA/EngineCode/src/engine/GDAManager.maxj (at line 15)
[maxjcompiler] 	import com.maxeler.maxcompiler.v2.managers.standard.Manager.MemAccessPattern;
[maxjcompiler] 	       ^^^^^^^^^^^^^^^^^^^^^^^^^^^^^^^^^^^^^^^^^^^^^^^^^^^^^^^^^^^^^^^^^^^^^
[maxjcompiler] The import com.maxeler.maxcompiler.v2.managers.standard.Manager.MemAccessPattern is never used
[maxjcompiler] ----------
[maxjcompiler] 42. WARNING in /home/maxeler/asplos16/benchmarks/GDA/EngineCode/src/engine/GDAManager.maxj (at line 16)
[maxjcompiler] 	import com.maxeler.maxcompiler.v2.managers.standard.Manager.IOType;
[maxjcompiler] 	       ^^^^^^^^^^^^^^^^^^^^^^^^^^^^^^^^^^^^^^^^^^^^^^^^^^^^^^^^^^^
[maxjcompiler] The import com.maxeler.maxcompiler.v2.managers.standard.Manager.IOType is never used
[maxjcompiler] ----------
[maxjcompiler] 43. WARNING in /home/maxeler/asplos16/benchmarks/GDA/EngineCode/src/engine/GDAManager.maxj (at line 34)
[maxjcompiler] 	private static final CPUTypes U64 =    CPUTypes.UINT64;
[maxjcompiler] 	                              ^^^
[maxjcompiler] The field GDAManager.U64 is never read locally
[maxjcompiler] ----------
[maxjcompiler] 44. WARNING in /home/maxeler/asplos16/benchmarks/GDA/EngineCode/src/engine/GDAManager.maxj (at line 35)
[maxjcompiler] 	private static final CPUTypes FLOAT  = CPUTypes.FLOAT;
[maxjcompiler] 	                              ^^^^^
[maxjcompiler] The field GDAManager.FLOAT is never read locally
[maxjcompiler] ----------
[maxjcompiler] ----------
[maxjcompiler] 45. WARNING in /home/maxeler/asplos16/benchmarks/GDA/EngineCode/src/engine/DblRegFileLib.maxj (at line 5)
[maxjcompiler] 	import com.maxeler.maxcompiler.v2.kernelcompiler.stdlib.memory.Memory;
[maxjcompiler] 	       ^^^^^^^^^^^^^^^^^^^^^^^^^^^^^^^^^^^^^^^^^^^^^^^^^^^^^^^^^^^^^^
[maxjcompiler] The import com.maxeler.maxcompiler.v2.kernelcompiler.stdlib.memory.Memory is never used
[maxjcompiler] ----------
[maxjcompiler] 46. WARNING in /home/maxeler/asplos16/benchmarks/GDA/EngineCode/src/engine/DblRegFileLib.maxj (at line 7)
[maxjcompiler] 	import com.maxeler.maxcompiler.v2.utils.MathUtils;
[maxjcompiler] 	       ^^^^^^^^^^^^^^^^^^^^^^^^^^^^^^^^^^^^^^^^^^
[maxjcompiler] The import com.maxeler.maxcompiler.v2.utils.MathUtils is never used
[maxjcompiler] ----------
[maxjcompiler] 47. WARNING in /home/maxeler/asplos16/benchmarks/GDA/EngineCode/src/engine/DblRegFileLib.maxj (at line 9)
[maxjcompiler] 	import com.maxeler.maxcompiler.v2.kernelcompiler.Optimization;
[maxjcompiler] 	       ^^^^^^^^^^^^^^^^^^^^^^^^^^^^^^^^^^^^^^^^^^^^^^^^^^^^^^
[maxjcompiler] The import com.maxeler.maxcompiler.v2.kernelcompiler.Optimization is never used
[maxjcompiler] ----------
[maxjcompiler] ----------
[maxjcompiler] 48. WARNING in /home/maxeler/asplos16/benchmarks/GDA/EngineCode/src/engine/BlockStorer.maxj (at line 6)
[maxjcompiler] 	import com.maxeler.maxcompiler.v2.kernelcompiler.stdlib.core.CounterChain;
[maxjcompiler] 	       ^^^^^^^^^^^^^^^^^^^^^^^^^^^^^^^^^^^^^^^^^^^^^^^^^^^^^^^^^^^^^^^^^^
[maxjcompiler] The import com.maxeler.maxcompiler.v2.kernelcompiler.stdlib.core.CounterChain is never used
[maxjcompiler] ----------
[maxjcompiler] 49. WARNING in /home/maxeler/asplos16/benchmarks/GDA/EngineCode/src/engine/BlockStorer.maxj (at line 11)
[maxjcompiler] 	import com.maxeler.maxcompiler.v2.kernelcompiler.Optimization;
[maxjcompiler] 	       ^^^^^^^^^^^^^^^^^^^^^^^^^^^^^^^^^^^^^^^^^^^^^^^^^^^^^^
[maxjcompiler] The import com.maxeler.maxcompiler.v2.kernelcompiler.Optimization is never used
[maxjcompiler] ----------
[maxjcompiler] 50. WARNING in /home/maxeler/asplos16/benchmarks/GDA/EngineCode/src/engine/BlockStorer.maxj (at line 77)
[maxjcompiler] 	DFEVar prevMstart = stream.offset(memStart, -1);
[maxjcompiler] 	       ^^^^^^^^^^
[maxjcompiler] The local variable prevMstart is never read
[maxjcompiler] ----------
[maxjcompiler] ----------
[maxjcompiler] 51. WARNING in /home/maxeler/asplos16/benchmarks/GDA/EngineCode/src/engine/BramLib.maxj (at line 6)
[maxjcompiler] 	import com.maxeler.maxcompiler.v2.kernelcompiler.SMIO;
[maxjcompiler] 	       ^^^^^^^^^^^^^^^^^^^^^^^^^^^^^^^^^^^^^^^^^^^^^^
[maxjcompiler] The import com.maxeler.maxcompiler.v2.kernelcompiler.SMIO is never used
[maxjcompiler] ----------
[maxjcompiler] ----------
[maxjcompiler] 52. WARNING in /home/maxeler/asplos16/benchmarks/GDA/EngineCode/src/engine/x230x235x240x245_ParallelStateMachine.maxj (at line 50)
[maxjcompiler] 	DFEsmValueType counterType = dfeUInt(32);
[maxjcompiler] 	               ^^^^^^^^^^^
[maxjcompiler] The local variable counterType is never read
[maxjcompiler] ----------
[maxjcompiler] ----------
[maxjcompiler] 53. WARNING in /home/maxeler/asplos16/benchmarks/GDA/EngineCode/src/engine/DblBufStateMachine.maxj (at line 48)
[maxjcompiler] 	this.numIter = numIter;
[maxjcompiler] 	^^^^^^^^^^^^^^^^^^^^^^
[maxjcompiler] The assignment to variable numIter has no effect
[maxjcompiler] ----------
[maxjcompiler] ----------
[maxjcompiler] 54. WARNING in /home/maxeler/asplos16/benchmarks/GDA/EngineCode/src/engine/BaseKernelLib.maxj (at line 2)
[maxjcompiler] 	import com.maxeler.maxcompiler.v2.kernelcompiler.stdlib.core.Count.Counter;
[maxjcompiler] 	       ^^^^^^^^^^^^^^^^^^^^^^^^^^^^^^^^^^^^^^^^^^^^^^^^^^^^^^^^^^^^^^^^^^^
[maxjcompiler] The import com.maxeler.maxcompiler.v2.kernelcompiler.stdlib.core.Count.Counter is never used
[maxjcompiler] ----------
[maxjcompiler] 55. WARNING in /home/maxeler/asplos16/benchmarks/GDA/EngineCode/src/engine/BaseKernelLib.maxj (at line 3)
[maxjcompiler] 	import com.maxeler.maxcompiler.v2.kernelcompiler.stdlib.core.CounterChain;
[maxjcompiler] 	       ^^^^^^^^^^^^^^^^^^^^^^^^^^^^^^^^^^^^^^^^^^^^^^^^^^^^^^^^^^^^^^^^^^
[maxjcompiler] The import com.maxeler.maxcompiler.v2.kernelcompiler.stdlib.core.CounterChain is never used
[maxjcompiler] ----------
[maxjcompiler] 56. WARNING in /home/maxeler/asplos16/benchmarks/GDA/EngineCode/src/engine/BaseKernelLib.maxj (at line 4)
[maxjcompiler] 	import com.maxeler.maxcompiler.v2.kernelcompiler.stdlib.core.Count;
[maxjcompiler] 	       ^^^^^^^^^^^^^^^^^^^^^^^^^^^^^^^^^^^^^^^^^^^^^^^^^^^^^^^^^^^
[maxjcompiler] The import com.maxeler.maxcompiler.v2.kernelcompiler.stdlib.core.Count is never used
[maxjcompiler] ----------
[maxjcompiler] 57. WARNING in /home/maxeler/asplos16/benchmarks/GDA/EngineCode/src/engine/BaseKernelLib.maxj (at line 5)
[maxjcompiler] 	import com.maxeler.maxcompiler.v2.kernelcompiler.stdlib.core.Count.Params;
[maxjcompiler] 	       ^^^^^^^^^^^^^^^^^^^^^^^^^^^^^^^^^^^^^^^^^^^^^^^^^^^^^^^^^^^^^^^^^^
[maxjcompiler] The import com.maxeler.maxcompiler.v2.kernelcompiler.stdlib.core.Count.Params is never used
[maxjcompiler] ----------
[maxjcompiler] 58. WARNING in /home/maxeler/asplos16/benchmarks/GDA/EngineCode/src/engine/BaseKernelLib.maxj (at line 6)
[maxjcompiler] 	import com.maxeler.maxcompiler.v2.kernelcompiler.stdlib.memory.Memory;
[maxjcompiler] 	       ^^^^^^^^^^^^^^^^^^^^^^^^^^^^^^^^^^^^^^^^^^^^^^^^^^^^^^^^^^^^^^
[maxjcompiler] The import com.maxeler.maxcompiler.v2.kernelcompiler.stdlib.memory.Memory is never used
[maxjcompiler] ----------
[maxjcompiler] 59. WARNING in /home/maxeler/asplos16/benchmarks/GDA/EngineCode/src/engine/BaseKernelLib.maxj (at line 7)
[maxjcompiler] 	import com.maxeler.maxcompiler.v2.kernelcompiler.Kernel;
[maxjcompiler] 	       ^^^^^^^^^^^^^^^^^^^^^^^^^^^^^^^^^^^^^^^^^^^^^^^^
[maxjcompiler] The import com.maxeler.maxcompiler.v2.kernelcompiler.Kernel is never used
[maxjcompiler] ----------
[maxjcompiler] 60. WARNING in /home/maxeler/asplos16/benchmarks/GDA/EngineCode/src/engine/BaseKernelLib.maxj (at line 8)
[maxjcompiler] 	import com.maxeler.maxcompiler.v2.kernelcompiler.KernelParameters;
[maxjcompiler] 	       ^^^^^^^^^^^^^^^^^^^^^^^^^^^^^^^^^^^^^^^^^^^^^^^^^^^^^^^^^^
[maxjcompiler] The import com.maxeler.maxcompiler.v2.kernelcompiler.KernelParameters is never used
[maxjcompiler] ----------
[maxjcompiler] 61. WARNING in /home/maxeler/asplos16/benchmarks/GDA/EngineCode/src/engine/BaseKernelLib.maxj (at line 10)
[maxjcompiler] 	import com.maxeler.maxcompiler.v2.utils.MathUtils;
[maxjcompiler] 	       ^^^^^^^^^^^^^^^^^^^^^^^^^^^^^^^^^^^^^^^^^^
[maxjcompiler] The import com.maxeler.maxcompiler.v2.utils.MathUtils is never used
[maxjcompiler] ----------
[maxjcompiler] 62. WARNING in /home/maxeler/asplos16/benchmarks/GDA/EngineCode/src/engine/BaseKernelLib.maxj (at line 11)
[maxjcompiler] 	import com.maxeler.maxcompiler.v2.utils.Bits;
[maxjcompiler] 	       ^^^^^^^^^^^^^^^^^^^^^^^^^^^^^^^^^^^^^
[maxjcompiler] The import com.maxeler.maxcompiler.v2.utils.Bits is never used
[maxjcompiler] ----------
[maxjcompiler] 63. WARNING in /home/maxeler/asplos16/benchmarks/GDA/EngineCode/src/engine/BaseKernelLib.maxj (at line 13)
[maxjcompiler] 	import com.maxeler.maxcompiler.v2.kernelcompiler.stdlib.KernelMath;
[maxjcompiler] 	       ^^^^^^^^^^^^^^^^^^^^^^^^^^^^^^^^^^^^^^^^^^^^^^^^^^^^^^^^^^^
[maxjcompiler] The import com.maxeler.maxcompiler.v2.kernelcompiler.stdlib.KernelMath is never used
[maxjcompiler] ----------
[maxjcompiler] 64. WARNING in /home/maxeler/asplos16/benchmarks/GDA/EngineCode/src/engine/BaseKernelLib.maxj (at line 15)
[maxjcompiler] 	import com.maxeler.maxcompiler.v2.kernelcompiler.stdlib.core.Stream.OffsetExpr;
[maxjcompiler] 	       ^^^^^^^^^^^^^^^^^^^^^^^^^^^^^^^^^^^^^^^^^^^^^^^^^^^^^^^^^^^^^^^^^^^^^^^
[maxjcompiler] The import com.maxeler.maxcompiler.v2.kernelcompiler.stdlib.core.Stream.OffsetExpr is never used
[maxjcompiler] ----------
[maxjcompiler] 65. WARNING in /home/maxeler/asplos16/benchmarks/GDA/EngineCode/src/engine/BaseKernelLib.maxj (at line 16)
[maxjcompiler] 	import com.maxeler.maxcompiler.v2.kernelcompiler.stdlib.Reductions;
[maxjcompiler] 	       ^^^^^^^^^^^^^^^^^^^^^^^^^^^^^^^^^^^^^^^^^^^^^^^^^^^^^^^^^^^
[maxjcompiler] The import com.maxeler.maxcompiler.v2.kernelcompiler.stdlib.Reductions is never used
[maxjcompiler] ----------
[maxjcompiler] 66. WARNING in /home/maxeler/asplos16/benchmarks/GDA/EngineCode/src/engine/BaseKernelLib.maxj (at line 17)
[maxjcompiler] 	import com.maxeler.maxcompiler.v2.kernelcompiler.SMIO;
[maxjcompiler] 	       ^^^^^^^^^^^^^^^^^^^^^^^^^^^^^^^^^^^^^^^^^^^^^^
[maxjcompiler] The import com.maxeler.maxcompiler.v2.kernelcompiler.SMIO is never used
[maxjcompiler] ----------
[maxjcompiler] 67. WARNING in /home/maxeler/asplos16/benchmarks/GDA/EngineCode/src/engine/BaseKernelLib.maxj (at line 18)
[maxjcompiler] 	import com.maxeler.maxcompiler.v2.kernelcompiler.stdlib.Accumulator;
[maxjcompiler] 	       ^^^^^^^^^^^^^^^^^^^^^^^^^^^^^^^^^^^^^^^^^^^^^^^^^^^^^^^^^^^^
[maxjcompiler] The import com.maxeler.maxcompiler.v2.kernelcompiler.stdlib.Accumulator is never used
[maxjcompiler] ----------
[maxjcompiler] ----------
[maxjcompiler] 68. WARNING in /home/maxeler/asplos16/benchmarks/GDA/EngineCode/src/engine/BlockLoader.maxj (at line 6)
[maxjcompiler] 	import com.maxeler.maxcompiler.v2.kernelcompiler.stdlib.core.CounterChain;
[maxjcompiler] 	       ^^^^^^^^^^^^^^^^^^^^^^^^^^^^^^^^^^^^^^^^^^^^^^^^^^^^^^^^^^^^^^^^^^
[maxjcompiler] The import com.maxeler.maxcompiler.v2.kernelcompiler.stdlib.core.CounterChain is never used
[maxjcompiler] ----------
[maxjcompiler] 69. WARNING in /home/maxeler/asplos16/benchmarks/GDA/EngineCode/src/engine/BlockLoader.maxj (at line 11)
[maxjcompiler] 	import com.maxeler.maxcompiler.v2.kernelcompiler.Optimization;
[maxjcompiler] 	       ^^^^^^^^^^^^^^^^^^^^^^^^^^^^^^^^^^^^^^^^^^^^^^^^^^^^^^
[maxjcompiler] The import com.maxeler.maxcompiler.v2.kernelcompiler.Optimization is never used
[maxjcompiler] ----------
[maxjcompiler] 69 problems (69 warnings)

all:
      [ant] Exiting /home/maxeler/asplos16/benchmarks/GDA/RunRules/Simulation/Project_Build.xml.

run:
     [java] Executing '/usr/lib/jvm/java-1.7.0-openjdk-1.7.0.79.x86_64/jre/bin/java' with arguments:
     [java] '-Xmx2048m'
     [java] '-classpath'
     [java] '/home/maxeler/asplos16/benchmarks/GDA/RunRules/Simulation/dist/bin:/opt/maxeler/maxcompiler-2014.2/lib/MaxCompiler.jar'
     [java] 'engine.GDAManager'
     [java] 
     [java] The ' characters around the executable and arguments are
     [java] not part of the command.
     [java] Setting environment variable: MAXSOURCEDIRS=src
     [java] Sun 20:57: MaxCompiler version: 2014.2
     [java] Sun 20:57: Build "GDA" start time: Sun Aug 09 20:57:41 BST 2015
     [java] Sun 20:57: Main build process running as user maxeler on host maxnode7795.localdomain
     [java] Sun 20:57: Build location: /home/maxeler/asplos16/benchmarks/GDA/RunRules/Simulation/maxfiles/GDA_MAX3424A_DFE_SIM
     [java] Sun 20:57: Detailed build log available in "_build.log"
     [java] Sun 20:57: 
     [java] Sun 20:57: ENGINE BUILD PARAMETERS
     [java] Sun 20:57: 	 Build name: GDA_MAX3424A_DFE_SIM
     [java] Sun 20:57: 	   DFEModel: MAX3424A               
     [java] Sun 20:57: 	maxFileName: GDA                 
     [java] Sun 20:57: 	     target: DFE_SIM                
     [java] Sun 20:57: 	 enableMPCX: false                  
     [java] Sun 20:57: Instantiating kernel "GDAKernel"
     [java] Sun 20:57: WARNING: Floating-point casts ignore set rounding mode and use TONEAREVEN rounding only.
     [java] Sun 20:57: 
     [java] Sun 20:57: Compiling kernel "GDAKernel"
     [java] Sun 20:57: WARNING: Warning (UNCONNECTED_DESIGN_ELEMENT):
     [java] Sun 20:57: WARNING: Unconnected elements in design 'GDAKernel'
     [java] Sun 20:57: WARNING: details in : /home/maxeler/asplos16/benchmarks/GDA/RunRules/Simulation/maxfiles/GDA_MAX3424A_DFE_SIM/scratch/GDAKernel_graph_warnings.txt
     [java] Sun 20:57: Running back-end simulation build (3 phases)
     [java] Sun 20:57: (1/3) - Prepare MaxFile Data (GenerateMaxFileDataFile)
     [java] Sun 20:57: (2/3) - Compile Simulation Modules (SimCompilePass)
     [java] Sun 20:58: (3/3) - Generate MaxFile (AddSimObjectToMaxFilePass)
     [java] Sun 20:58: MaxFile: /home/maxeler/asplos16/benchmarks/GDA/RunRules/Simulation/maxfiles/GDA_MAX3424A_DFE_SIM/results/GDA.max (MD5Sum: d4eef9cc06eae25595e39d2220978364)
     [java] Sun 20:58: Build completed: Sun Aug 09 20:58:15 BST 2015 (took 34 secs)

BUILD SUCCESSFUL
Total time: 35 seconds
