Apache Ant version 1.7.1 compiled on August 24 2010
Buildfile: SumRows.xml
Detected Java version: 1.6 in: /usr/lib/jvm/java-1.7.0-openjdk-1.7.0.79.x86_64/jre
Detected OS: Linux
parsing buildfile /home/maxeler/asplos16/matmult/RunRules/DFE/SumRows.xml with URI = file:/home/maxeler/asplos16/matmult/RunRules/DFE/SumRows.xml
Project base dir set to: /home/maxeler/asplos16/matmult/EngineCode
[antlib:org.apache.tools.ant] Could not load definitions from resource org/apache/tools/ant/antlib.xml. It could not be found.
 [property] Loading Environment env.
Property "-*-command-variables-*-" has not been set
Property "env.MAXCOMPILERJCP" has not been set
Build sequence for target(s) `run' is [build, run]
Complete build sequence is [build, run, help, clean, all, jar, ]

build:
Detected Java version: 1.6 in: /usr/lib/jvm/java-1.7.0-openjdk-1.7.0.79.x86_64/jre
Detected OS: Linux
      [ant] calling target(s) [default] in build file /home/maxeler/asplos16/matmult/RunRules/DFE/Project_Build.xml
parsing buildfile /home/maxeler/asplos16/matmult/RunRules/DFE/Project_Build.xml with URI = file:/home/maxeler/asplos16/matmult/RunRules/DFE/Project_Build.xml
Project base dir set to: /home/maxeler/asplos16/matmult/EngineCode
 [property] Loading Environment env.
Property "-*-command-variables-*-" has not been set
Property "env.MAXCOMPILERJCP" has not been set
      [ant] Entering /home/maxeler/asplos16/matmult/RunRules/DFE/Project_Build.xml...
Build sequence for target(s) `all' is [clean, build, all]
Complete build sequence is [clean, build, all, ]

clean:
   [delete] Deleting directory /home/maxeler/asplos16/matmult/RunRules/DFE/dist
   [delete] Deleting /home/maxeler/asplos16/matmult/RunRules/DFE/dist/bin/engine/x695_StateMachine.class
   [delete] Deleting /home/maxeler/asplos16/matmult/RunRules/DFE/dist/bin/engine/x695.working.noburst.maxj.bak
   [delete] Deleting /home/maxeler/asplos16/matmult/RunRules/DFE/dist/bin/engine/BlockLoaderLib.class
   [delete] Deleting /home/maxeler/asplos16/matmult/RunRules/DFE/dist/bin/engine/BramLib.class
   [delete] Deleting /home/maxeler/asplos16/matmult/RunRules/DFE/dist/bin/engine/x695_StateMachine$States.class
   [delete] Deleting /home/maxeler/asplos16/matmult/RunRules/DFE/dist/bin/engine/x646x693_ParallelStateMachine.class
   [delete] Deleting /home/maxeler/asplos16/matmult/RunRules/DFE/dist/bin/engine/DblRegFileLib.class
   [delete] Deleting /home/maxeler/asplos16/matmult/RunRules/DFE/dist/bin/engine/MainStateMachine.class
   [delete] Deleting /home/maxeler/asplos16/matmult/RunRules/DFE/dist/bin/engine/MainStateMachine$States.class
   [delete] Deleting /home/maxeler/asplos16/matmult/RunRules/DFE/dist/bin/engine/x606x617_ParallelStateMachine$States.class
   [delete] Deleting /home/maxeler/asplos16/matmult/RunRules/DFE/dist/bin/engine/KLib_x695.class
   [delete] Deleting /home/maxeler/asplos16/matmult/RunRules/DFE/dist/bin/engine/BaseKernelLib.class
   [delete] Deleting /home/maxeler/asplos16/matmult/RunRules/DFE/dist/bin/engine/BlockSM.class
   [delete] Deleting /home/maxeler/asplos16/matmult/RunRules/DFE/dist/bin/engine/CtrChainLib.class
   [delete] Deleting /home/maxeler/asplos16/matmult/RunRules/DFE/dist/bin/engine/BlockStorerLib.class
   [delete] Deleting /home/maxeler/asplos16/matmult/RunRules/DFE/dist/bin/engine/BlockStorer.maxj.bak
   [delete] Deleting /home/maxeler/asplos16/matmult/RunRules/DFE/dist/bin/engine/BlockLoader.maxj.bak
   [delete] Deleting /home/maxeler/asplos16/matmult/RunRules/DFE/dist/bin/engine/x646_StateMachine$States.class
   [delete] Deleting /home/maxeler/asplos16/matmult/RunRules/DFE/dist/bin/engine/x646_StateMachine.class
   [delete] Deleting /home/maxeler/asplos16/matmult/RunRules/DFE/dist/bin/engine/DblBufStateMachine$States.class
   [delete] Deleting /home/maxeler/asplos16/matmult/RunRules/DFE/dist/bin/engine/KLib_x8.class
   [delete] Deleting /home/maxeler/asplos16/matmult/RunRules/DFE/dist/bin/engine/DblBufKernelLib_np.class
   [delete] Deleting /home/maxeler/asplos16/matmult/RunRules/DFE/dist/bin/engine/x646x693_ParallelStateMachine$States.class
   [delete] Deleting /home/maxeler/asplos16/matmult/RunRules/DFE/dist/bin/engine/DelayLib.class
   [delete] Deleting /home/maxeler/asplos16/matmult/RunRules/DFE/dist/bin/engine/x606x617_ParallelStateMachine.class
   [delete] Deleting /home/maxeler/asplos16/matmult/RunRules/DFE/dist/bin/engine/BlockSM$States.class
   [delete] Deleting /home/maxeler/asplos16/matmult/RunRules/DFE/dist/bin/engine/SumRowsKernel.class
   [delete] Deleting /home/maxeler/asplos16/matmult/RunRules/DFE/dist/bin/engine/KLib_x7.class
   [delete] Deleting /home/maxeler/asplos16/matmult/RunRules/DFE/dist/bin/engine/x695.notworking
   [delete] Deleting /home/maxeler/asplos16/matmult/RunRules/DFE/dist/bin/engine/SumRowsManager.class
   [delete] Deleting /home/maxeler/asplos16/matmult/RunRules/DFE/dist/bin/engine/DblBufStateMachine.class
   [delete] Deleting directory /home/maxeler/asplos16/matmult/RunRules/DFE/dist/bin/engine
   [delete] Deleting directory /home/maxeler/asplos16/matmult/RunRules/DFE/dist/bin
   [delete] Deleting directory /home/maxeler/asplos16/matmult/RunRules/DFE/dist

build:
    [mkdir] Created dir: /home/maxeler/asplos16/matmult/RunRules/DFE/dist
    [mkdir] Created dir: /home/maxeler/asplos16/matmult/RunRules/DFE/dist/bin
     [copy] engine/BlockLoader.maxj.bak added as engine/BlockLoader.maxj.bak doesn't exist.
     [copy] engine/BlockStorer.maxj.bak added as engine/BlockStorer.maxj.bak doesn't exist.
     [copy] engine/x695.notworking added as engine/x695.notworking doesn't exist.
     [copy] engine/x695.working.noburst.maxj.bak added as engine/x695.working.noburst.maxj.bak doesn't exist.
     [copy] Copying 4 files to /home/maxeler/asplos16/matmult/RunRules/DFE/dist/bin
     [copy] Copying /home/maxeler/asplos16/matmult/EngineCode/src/engine/BlockLoader.maxj.bak to /home/maxeler/asplos16/matmult/RunRules/DFE/dist/bin/engine/BlockLoader.maxj.bak
     [copy] Copying /home/maxeler/asplos16/matmult/EngineCode/src/engine/BlockStorer.maxj.bak to /home/maxeler/asplos16/matmult/RunRules/DFE/dist/bin/engine/BlockStorer.maxj.bak
     [copy] Copying /home/maxeler/asplos16/matmult/EngineCode/src/engine/x695.notworking to /home/maxeler/asplos16/matmult/RunRules/DFE/dist/bin/engine/x695.notworking
     [copy] Copying /home/maxeler/asplos16/matmult/EngineCode/src/engine/x695.working.noburst.maxj.bak to /home/maxeler/asplos16/matmult/RunRules/DFE/dist/bin/engine/x695.working.noburst.maxj.bak
[maxjcompiler] 
[maxjcompiler] 
[maxjcompiler] Compiling to folder /home/maxeler/asplos16/matmult/RunRules/DFE/dist/bin
[maxjcompiler] 
[maxjcompiler] Compiling files and folders:
[maxjcompiler] /home/maxeler/asplos16/matmult/EngineCode/src
[maxjcompiler] 
[maxjcompiler] Compiler options:
[maxjcompiler] -noExit
[maxjcompiler] -classpath
[maxjcompiler] /opt/maxeler/maxcompiler-2014.2/lib/MaxCompiler.jar
[maxjcompiler] -d
[maxjcompiler] /home/maxeler/asplos16/matmult/RunRules/DFE/dist/bin
[maxjcompiler] ----------
[maxjcompiler] 1. WARNING in /home/maxeler/asplos16/matmult/EngineCode/src/engine/x646x693_ParallelStateMachine.maxj (at line 42)
[maxjcompiler] 	DFEsmValueType counterType = dfeUInt(32);
[maxjcompiler] 	               ^^^^^^^^^^^
[maxjcompiler] The local variable counterType is never read
[maxjcompiler] ----------
[maxjcompiler] ----------
[maxjcompiler] 2. WARNING in /home/maxeler/asplos16/matmult/EngineCode/src/engine/CtrChainLib.maxj (at line 6)
[maxjcompiler] 	import com.maxeler.maxcompiler.v2.kernelcompiler.SMIO;
[maxjcompiler] 	       ^^^^^^^^^^^^^^^^^^^^^^^^^^^^^^^^^^^^^^^^^^^^^^
[maxjcompiler] The import com.maxeler.maxcompiler.v2.kernelcompiler.SMIO is never used
[maxjcompiler] ----------
[maxjcompiler] 3. WARNING in /home/maxeler/asplos16/matmult/EngineCode/src/engine/CtrChainLib.maxj (at line 7)
[maxjcompiler] 	import com.maxeler.maxcompiler.v2.kernelcompiler.stdlib.core.CounterChain;
[maxjcompiler] 	       ^^^^^^^^^^^^^^^^^^^^^^^^^^^^^^^^^^^^^^^^^^^^^^^^^^^^^^^^^^^^^^^^^^
[maxjcompiler] The import com.maxeler.maxcompiler.v2.kernelcompiler.stdlib.core.CounterChain is never used
[maxjcompiler] ----------
[maxjcompiler] 4. WARNING in /home/maxeler/asplos16/matmult/EngineCode/src/engine/CtrChainLib.maxj (at line 8)
[maxjcompiler] 	import com.maxeler.maxcompiler.v2.utils.MathUtils;
[maxjcompiler] 	       ^^^^^^^^^^^^^^^^^^^^^^^^^^^^^^^^^^^^^^^^^^
[maxjcompiler] The import com.maxeler.maxcompiler.v2.utils.MathUtils is never used
[maxjcompiler] ----------
[maxjcompiler] ----------
[maxjcompiler] 5. WARNING in /home/maxeler/asplos16/matmult/EngineCode/src/engine/x606x617_ParallelStateMachine.maxj (at line 42)
[maxjcompiler] 	DFEsmValueType counterType = dfeUInt(32);
[maxjcompiler] 	               ^^^^^^^^^^^
[maxjcompiler] The local variable counterType is never read
[maxjcompiler] ----------
[maxjcompiler] ----------
[maxjcompiler] 6. WARNING in /home/maxeler/asplos16/matmult/EngineCode/src/engine/x7.maxj (at line 2)
[maxjcompiler] 	import com.maxeler.maxcompiler.v2.kernelcompiler.stdlib.core.Count.Counter;
[maxjcompiler] 	       ^^^^^^^^^^^^^^^^^^^^^^^^^^^^^^^^^^^^^^^^^^^^^^^^^^^^^^^^^^^^^^^^^^^
[maxjcompiler] The import com.maxeler.maxcompiler.v2.kernelcompiler.stdlib.core.Count.Counter is never used
[maxjcompiler] ----------
[maxjcompiler] 7. WARNING in /home/maxeler/asplos16/matmult/EngineCode/src/engine/x7.maxj (at line 3)
[maxjcompiler] 	import com.maxeler.maxcompiler.v2.kernelcompiler.stdlib.core.CounterChain;
[maxjcompiler] 	       ^^^^^^^^^^^^^^^^^^^^^^^^^^^^^^^^^^^^^^^^^^^^^^^^^^^^^^^^^^^^^^^^^^
[maxjcompiler] The import com.maxeler.maxcompiler.v2.kernelcompiler.stdlib.core.CounterChain is never used
[maxjcompiler] ----------
[maxjcompiler] 8. WARNING in /home/maxeler/asplos16/matmult/EngineCode/src/engine/x7.maxj (at line 4)
[maxjcompiler] 	import com.maxeler.maxcompiler.v2.kernelcompiler.stdlib.core.Count;
[maxjcompiler] 	       ^^^^^^^^^^^^^^^^^^^^^^^^^^^^^^^^^^^^^^^^^^^^^^^^^^^^^^^^^^^
[maxjcompiler] The import com.maxeler.maxcompiler.v2.kernelcompiler.stdlib.core.Count is never used
[maxjcompiler] ----------
[maxjcompiler] 9. WARNING in /home/maxeler/asplos16/matmult/EngineCode/src/engine/x7.maxj (at line 5)
[maxjcompiler] 	import com.maxeler.maxcompiler.v2.kernelcompiler.stdlib.core.Count.Params;
[maxjcompiler] 	       ^^^^^^^^^^^^^^^^^^^^^^^^^^^^^^^^^^^^^^^^^^^^^^^^^^^^^^^^^^^^^^^^^^
[maxjcompiler] The import com.maxeler.maxcompiler.v2.kernelcompiler.stdlib.core.Count.Params is never used
[maxjcompiler] ----------
[maxjcompiler] 10. WARNING in /home/maxeler/asplos16/matmult/EngineCode/src/engine/x7.maxj (at line 6)
[maxjcompiler] 	import com.maxeler.maxcompiler.v2.kernelcompiler.stdlib.memory.Memory;
[maxjcompiler] 	       ^^^^^^^^^^^^^^^^^^^^^^^^^^^^^^^^^^^^^^^^^^^^^^^^^^^^^^^^^^^^^^
[maxjcompiler] The import com.maxeler.maxcompiler.v2.kernelcompiler.stdlib.memory.Memory is never used
[maxjcompiler] ----------
[maxjcompiler] 11. WARNING in /home/maxeler/asplos16/matmult/EngineCode/src/engine/x7.maxj (at line 7)
[maxjcompiler] 	import com.maxeler.maxcompiler.v2.kernelcompiler.Kernel;
[maxjcompiler] 	       ^^^^^^^^^^^^^^^^^^^^^^^^^^^^^^^^^^^^^^^^^^^^^^^^
[maxjcompiler] The import com.maxeler.maxcompiler.v2.kernelcompiler.Kernel is never used
[maxjcompiler] ----------
[maxjcompiler] 12. WARNING in /home/maxeler/asplos16/matmult/EngineCode/src/engine/x7.maxj (at line 8)
[maxjcompiler] 	import com.maxeler.maxcompiler.v2.kernelcompiler.KernelParameters;
[maxjcompiler] 	       ^^^^^^^^^^^^^^^^^^^^^^^^^^^^^^^^^^^^^^^^^^^^^^^^^^^^^^^^^^
[maxjcompiler] The import com.maxeler.maxcompiler.v2.kernelcompiler.KernelParameters is never used
[maxjcompiler] ----------
[maxjcompiler] 13. WARNING in /home/maxeler/asplos16/matmult/EngineCode/src/engine/x7.maxj (at line 10)
[maxjcompiler] 	import com.maxeler.maxcompiler.v2.utils.MathUtils;
[maxjcompiler] 	       ^^^^^^^^^^^^^^^^^^^^^^^^^^^^^^^^^^^^^^^^^^
[maxjcompiler] The import com.maxeler.maxcompiler.v2.utils.MathUtils is never used
[maxjcompiler] ----------
[maxjcompiler] 14. WARNING in /home/maxeler/asplos16/matmult/EngineCode/src/engine/x7.maxj (at line 11)
[maxjcompiler] 	import com.maxeler.maxcompiler.v2.utils.Bits;
[maxjcompiler] 	       ^^^^^^^^^^^^^^^^^^^^^^^^^^^^^^^^^^^^^
[maxjcompiler] The import com.maxeler.maxcompiler.v2.utils.Bits is never used
[maxjcompiler] ----------
[maxjcompiler] 15. WARNING in /home/maxeler/asplos16/matmult/EngineCode/src/engine/x7.maxj (at line 13)
[maxjcompiler] 	import com.maxeler.maxcompiler.v2.kernelcompiler.stdlib.KernelMath;
[maxjcompiler] 	       ^^^^^^^^^^^^^^^^^^^^^^^^^^^^^^^^^^^^^^^^^^^^^^^^^^^^^^^^^^^
[maxjcompiler] The import com.maxeler.maxcompiler.v2.kernelcompiler.stdlib.KernelMath is never used
[maxjcompiler] ----------
[maxjcompiler] 16. WARNING in /home/maxeler/asplos16/matmult/EngineCode/src/engine/x7.maxj (at line 14)
[maxjcompiler] 	import com.maxeler.maxcompiler.v2.kernelcompiler.types.base.DFEType;
[maxjcompiler] 	       ^^^^^^^^^^^^^^^^^^^^^^^^^^^^^^^^^^^^^^^^^^^^^^^^^^^^^^^^^^^^
[maxjcompiler] The import com.maxeler.maxcompiler.v2.kernelcompiler.types.base.DFEType is never used
[maxjcompiler] ----------
[maxjcompiler] 17. WARNING in /home/maxeler/asplos16/matmult/EngineCode/src/engine/x7.maxj (at line 15)
[maxjcompiler] 	import com.maxeler.maxcompiler.v2.kernelcompiler.stdlib.core.Stream.OffsetExpr;
[maxjcompiler] 	       ^^^^^^^^^^^^^^^^^^^^^^^^^^^^^^^^^^^^^^^^^^^^^^^^^^^^^^^^^^^^^^^^^^^^^^^
[maxjcompiler] The import com.maxeler.maxcompiler.v2.kernelcompiler.stdlib.core.Stream.OffsetExpr is never used
[maxjcompiler] ----------
[maxjcompiler] 18. WARNING in /home/maxeler/asplos16/matmult/EngineCode/src/engine/x7.maxj (at line 16)
[maxjcompiler] 	import com.maxeler.maxcompiler.v2.kernelcompiler.stdlib.Reductions;
[maxjcompiler] 	       ^^^^^^^^^^^^^^^^^^^^^^^^^^^^^^^^^^^^^^^^^^^^^^^^^^^^^^^^^^^
[maxjcompiler] The import com.maxeler.maxcompiler.v2.kernelcompiler.stdlib.Reductions is never used
[maxjcompiler] ----------
[maxjcompiler] 19. WARNING in /home/maxeler/asplos16/matmult/EngineCode/src/engine/x7.maxj (at line 17)
[maxjcompiler] 	import com.maxeler.maxcompiler.v2.kernelcompiler.SMIO;
[maxjcompiler] 	       ^^^^^^^^^^^^^^^^^^^^^^^^^^^^^^^^^^^^^^^^^^^^^^
[maxjcompiler] The import com.maxeler.maxcompiler.v2.kernelcompiler.SMIO is never used
[maxjcompiler] ----------
[maxjcompiler] 20. WARNING in /home/maxeler/asplos16/matmult/EngineCode/src/engine/x7.maxj (at line 18)
[maxjcompiler] 	import com.maxeler.maxcompiler.v2.kernelcompiler.stdlib.Accumulator;
[maxjcompiler] 	       ^^^^^^^^^^^^^^^^^^^^^^^^^^^^^^^^^^^^^^^^^^^^^^^^^^^^^^^^^^^^
[maxjcompiler] The import com.maxeler.maxcompiler.v2.kernelcompiler.stdlib.Accumulator is never used
[maxjcompiler] ----------
[maxjcompiler] ----------
[maxjcompiler] 21. WARNING in /home/maxeler/asplos16/matmult/EngineCode/src/engine/DelayLib.maxj (at line 5)
[maxjcompiler] 	import com.maxeler.maxcompiler.v2.kernelcompiler.types.base.DFEType;
[maxjcompiler] 	       ^^^^^^^^^^^^^^^^^^^^^^^^^^^^^^^^^^^^^^^^^^^^^^^^^^^^^^^^^^^^
[maxjcompiler] The import com.maxeler.maxcompiler.v2.kernelcompiler.types.base.DFEType is never used
[maxjcompiler] ----------
[maxjcompiler] ----------
[maxjcompiler] 22. WARNING in /home/maxeler/asplos16/matmult/EngineCode/src/engine/DblRegFileLib.maxj (at line 5)
[maxjcompiler] 	import com.maxeler.maxcompiler.v2.kernelcompiler.stdlib.memory.Memory;
[maxjcompiler] 	       ^^^^^^^^^^^^^^^^^^^^^^^^^^^^^^^^^^^^^^^^^^^^^^^^^^^^^^^^^^^^^^
[maxjcompiler] The import com.maxeler.maxcompiler.v2.kernelcompiler.stdlib.memory.Memory is never used
[maxjcompiler] ----------
[maxjcompiler] 23. WARNING in /home/maxeler/asplos16/matmult/EngineCode/src/engine/DblRegFileLib.maxj (at line 7)
[maxjcompiler] 	import com.maxeler.maxcompiler.v2.utils.MathUtils;
[maxjcompiler] 	       ^^^^^^^^^^^^^^^^^^^^^^^^^^^^^^^^^^^^^^^^^^
[maxjcompiler] The import com.maxeler.maxcompiler.v2.utils.MathUtils is never used
[maxjcompiler] ----------
[maxjcompiler] 24. WARNING in /home/maxeler/asplos16/matmult/EngineCode/src/engine/DblRegFileLib.maxj (at line 9)
[maxjcompiler] 	import com.maxeler.maxcompiler.v2.kernelcompiler.Optimization;
[maxjcompiler] 	       ^^^^^^^^^^^^^^^^^^^^^^^^^^^^^^^^^^^^^^^^^^^^^^^^^^^^^^
[maxjcompiler] The import com.maxeler.maxcompiler.v2.kernelcompiler.Optimization is never used
[maxjcompiler] ----------
[maxjcompiler] ----------
[maxjcompiler] 25. WARNING in /home/maxeler/asplos16/matmult/EngineCode/src/engine/x695.maxj (at line 2)
[maxjcompiler] 	import com.maxeler.maxcompiler.v2.kernelcompiler.stdlib.core.Count.Counter;
[maxjcompiler] 	       ^^^^^^^^^^^^^^^^^^^^^^^^^^^^^^^^^^^^^^^^^^^^^^^^^^^^^^^^^^^^^^^^^^^
[maxjcompiler] The import com.maxeler.maxcompiler.v2.kernelcompiler.stdlib.core.Count.Counter is never used
[maxjcompiler] ----------
[maxjcompiler] 26. WARNING in /home/maxeler/asplos16/matmult/EngineCode/src/engine/x695.maxj (at line 4)
[maxjcompiler] 	import com.maxeler.maxcompiler.v2.kernelcompiler.stdlib.core.Count;
[maxjcompiler] 	       ^^^^^^^^^^^^^^^^^^^^^^^^^^^^^^^^^^^^^^^^^^^^^^^^^^^^^^^^^^^
[maxjcompiler] The import com.maxeler.maxcompiler.v2.kernelcompiler.stdlib.core.Count is never used
[maxjcompiler] ----------
[maxjcompiler] 27. WARNING in /home/maxeler/asplos16/matmult/EngineCode/src/engine/x695.maxj (at line 5)
[maxjcompiler] 	import com.maxeler.maxcompiler.v2.kernelcompiler.stdlib.core.Count.Params;
[maxjcompiler] 	       ^^^^^^^^^^^^^^^^^^^^^^^^^^^^^^^^^^^^^^^^^^^^^^^^^^^^^^^^^^^^^^^^^^
[maxjcompiler] The import com.maxeler.maxcompiler.v2.kernelcompiler.stdlib.core.Count.Params is never used
[maxjcompiler] ----------
[maxjcompiler] 28. WARNING in /home/maxeler/asplos16/matmult/EngineCode/src/engine/x695.maxj (at line 6)
[maxjcompiler] 	import com.maxeler.maxcompiler.v2.kernelcompiler.stdlib.memory.Memory;
[maxjcompiler] 	       ^^^^^^^^^^^^^^^^^^^^^^^^^^^^^^^^^^^^^^^^^^^^^^^^^^^^^^^^^^^^^^
[maxjcompiler] The import com.maxeler.maxcompiler.v2.kernelcompiler.stdlib.memory.Memory is never used
[maxjcompiler] ----------
[maxjcompiler] 29. WARNING in /home/maxeler/asplos16/matmult/EngineCode/src/engine/x695.maxj (at line 7)
[maxjcompiler] 	import com.maxeler.maxcompiler.v2.kernelcompiler.Kernel;
[maxjcompiler] 	       ^^^^^^^^^^^^^^^^^^^^^^^^^^^^^^^^^^^^^^^^^^^^^^^^
[maxjcompiler] The import com.maxeler.maxcompiler.v2.kernelcompiler.Kernel is never used
[maxjcompiler] ----------
[maxjcompiler] 30. WARNING in /home/maxeler/asplos16/matmult/EngineCode/src/engine/x695.maxj (at line 8)
[maxjcompiler] 	import com.maxeler.maxcompiler.v2.kernelcompiler.KernelParameters;
[maxjcompiler] 	       ^^^^^^^^^^^^^^^^^^^^^^^^^^^^^^^^^^^^^^^^^^^^^^^^^^^^^^^^^^
[maxjcompiler] The import com.maxeler.maxcompiler.v2.kernelcompiler.KernelParameters is never used
[maxjcompiler] ----------
[maxjcompiler] 31. WARNING in /home/maxeler/asplos16/matmult/EngineCode/src/engine/x695.maxj (at line 11)
[maxjcompiler] 	import com.maxeler.maxcompiler.v2.utils.Bits;
[maxjcompiler] 	       ^^^^^^^^^^^^^^^^^^^^^^^^^^^^^^^^^^^^^
[maxjcompiler] The import com.maxeler.maxcompiler.v2.utils.Bits is never used
[maxjcompiler] ----------
[maxjcompiler] 32. WARNING in /home/maxeler/asplos16/matmult/EngineCode/src/engine/x695.maxj (at line 13)
[maxjcompiler] 	import com.maxeler.maxcompiler.v2.kernelcompiler.stdlib.KernelMath;
[maxjcompiler] 	       ^^^^^^^^^^^^^^^^^^^^^^^^^^^^^^^^^^^^^^^^^^^^^^^^^^^^^^^^^^^
[maxjcompiler] The import com.maxeler.maxcompiler.v2.kernelcompiler.stdlib.KernelMath is never used
[maxjcompiler] ----------
[maxjcompiler] 33. WARNING in /home/maxeler/asplos16/matmult/EngineCode/src/engine/x695.maxj (at line 14)
[maxjcompiler] 	import com.maxeler.maxcompiler.v2.kernelcompiler.types.base.DFEType;
[maxjcompiler] 	       ^^^^^^^^^^^^^^^^^^^^^^^^^^^^^^^^^^^^^^^^^^^^^^^^^^^^^^^^^^^^
[maxjcompiler] The import com.maxeler.maxcompiler.v2.kernelcompiler.types.base.DFEType is never used
[maxjcompiler] ----------
[maxjcompiler] 34. WARNING in /home/maxeler/asplos16/matmult/EngineCode/src/engine/x695.maxj (at line 151)
[maxjcompiler] 	DFEVar x14 = x4 - x9;
[maxjcompiler] 	       ^^^
[maxjcompiler] The local variable x14 is never read
[maxjcompiler] ----------
[maxjcompiler] 35. WARNING in /home/maxeler/asplos16/matmult/EngineCode/src/engine/x695.maxj (at line 153)
[maxjcompiler] 	DFEVar x17 = x6 - x10;
[maxjcompiler] 	       ^^^
[maxjcompiler] The local variable x17 is never read
[maxjcompiler] ----------
[maxjcompiler] 36. WARNING in /home/maxeler/asplos16/matmult/EngineCode/src/engine/x695.maxj (at line 155)
[maxjcompiler] 	DFEVar x20 = x5 - x11;
[maxjcompiler] 	       ^^^
[maxjcompiler] The local variable x20 is never read
[maxjcompiler] ----------
[maxjcompiler] 37. WARNING in /home/maxeler/asplos16/matmult/EngineCode/src/engine/x695.maxj (at line 158)
[maxjcompiler] 	DFEVar x36 = x15 * x21;
[maxjcompiler] 	       ^^^
[maxjcompiler] The local variable x36 is never read
[maxjcompiler] ----------
[maxjcompiler] 38. WARNING in /home/maxeler/asplos16/matmult/EngineCode/src/engine/x695.maxj (at line 180)
[maxjcompiler] 	DFEVar x54 = x21 * x18;
[maxjcompiler] 	       ^^^
[maxjcompiler] The local variable x54 is never read
[maxjcompiler] ----------
[maxjcompiler] 39. WARNING in /home/maxeler/asplos16/matmult/EngineCode/src/engine/x695.maxj (at line 202)
[maxjcompiler] 	DFEVar x75 = x15 * x18;
[maxjcompiler] 	       ^^^
[maxjcompiler] The local variable x75 is never read
[maxjcompiler] ----------
[maxjcompiler] 40. WARNING in /home/maxeler/asplos16/matmult/EngineCode/src/engine/x695.maxj (at line 309)
[maxjcompiler] 	DFEVar x123 = x15 * x18;
[maxjcompiler] 	       ^^^^
[maxjcompiler] The local variable x123 is never read
[maxjcompiler] ----------
[maxjcompiler] ----------
[maxjcompiler] 41. WARNING in /home/maxeler/asplos16/matmult/EngineCode/src/engine/SumRowsKernel.maxj (at line 3)
[maxjcompiler] 	import com.maxeler.maxcompiler.v2.kernelcompiler.stdlib.core.Count.Counter;
[maxjcompiler] 	       ^^^^^^^^^^^^^^^^^^^^^^^^^^^^^^^^^^^^^^^^^^^^^^^^^^^^^^^^^^^^^^^^^^^
[maxjcompiler] The import com.maxeler.maxcompiler.v2.kernelcompiler.stdlib.core.Count.Counter is never used
[maxjcompiler] ----------
[maxjcompiler] 42. WARNING in /home/maxeler/asplos16/matmult/EngineCode/src/engine/SumRowsKernel.maxj (at line 4)
[maxjcompiler] 	import com.maxeler.maxcompiler.v2.kernelcompiler.stdlib.core.CounterChain;
[maxjcompiler] 	       ^^^^^^^^^^^^^^^^^^^^^^^^^^^^^^^^^^^^^^^^^^^^^^^^^^^^^^^^^^^^^^^^^^
[maxjcompiler] The import com.maxeler.maxcompiler.v2.kernelcompiler.stdlib.core.CounterChain is never used
[maxjcompiler] ----------
[maxjcompiler] 43. WARNING in /home/maxeler/asplos16/matmult/EngineCode/src/engine/SumRowsKernel.maxj (at line 6)
[maxjcompiler] 	import com.maxeler.maxcompiler.v2.kernelcompiler.stdlib.core.Count.Params;
[maxjcompiler] 	       ^^^^^^^^^^^^^^^^^^^^^^^^^^^^^^^^^^^^^^^^^^^^^^^^^^^^^^^^^^^^^^^^^^
[maxjcompiler] The import com.maxeler.maxcompiler.v2.kernelcompiler.stdlib.core.Count.Params is never used
[maxjcompiler] ----------
[maxjcompiler] 44. WARNING in /home/maxeler/asplos16/matmult/EngineCode/src/engine/SumRowsKernel.maxj (at line 7)
[maxjcompiler] 	import com.maxeler.maxcompiler.v2.kernelcompiler.stdlib.memory.Memory;
[maxjcompiler] 	       ^^^^^^^^^^^^^^^^^^^^^^^^^^^^^^^^^^^^^^^^^^^^^^^^^^^^^^^^^^^^^^
[maxjcompiler] The import com.maxeler.maxcompiler.v2.kernelcompiler.stdlib.memory.Memory is never used
[maxjcompiler] ----------
[maxjcompiler] 45. WARNING in /home/maxeler/asplos16/matmult/EngineCode/src/engine/SumRowsKernel.maxj (at line 12)
[maxjcompiler] 	import com.maxeler.maxcompiler.v2.utils.MathUtils;
[maxjcompiler] 	       ^^^^^^^^^^^^^^^^^^^^^^^^^^^^^^^^^^^^^^^^^^
[maxjcompiler] The import com.maxeler.maxcompiler.v2.utils.MathUtils is never used
[maxjcompiler] ----------
[maxjcompiler] 46. WARNING in /home/maxeler/asplos16/matmult/EngineCode/src/engine/SumRowsKernel.maxj (at line 13)
[maxjcompiler] 	import com.maxeler.maxcompiler.v2.utils.Bits;
[maxjcompiler] 	       ^^^^^^^^^^^^^^^^^^^^^^^^^^^^^^^^^^^^^
[maxjcompiler] The import com.maxeler.maxcompiler.v2.utils.Bits is never used
[maxjcompiler] ----------
[maxjcompiler] 47. WARNING in /home/maxeler/asplos16/matmult/EngineCode/src/engine/SumRowsKernel.maxj (at line 14)
[maxjcompiler] 	import com.maxeler.maxcompiler.v2.kernelcompiler.stdlib.core.CounterChain;
[maxjcompiler] 	       ^^^^^^^^^^^^^^^^^^^^^^^^^^^^^^^^^^^^^^^^^^^^^^^^^^^^^^^^^^^^^^^^^^
[maxjcompiler] The import com.maxeler.maxcompiler.v2.kernelcompiler.stdlib.core.CounterChain is never used
[maxjcompiler] ----------
[maxjcompiler] 48. WARNING in /home/maxeler/asplos16/matmult/EngineCode/src/engine/SumRowsKernel.maxj (at line 17)
[maxjcompiler] 	import java.util.Random;
[maxjcompiler] 	       ^^^^^^^^^^^^^^^^
[maxjcompiler] The import java.util.Random is never used
[maxjcompiler] ----------
[maxjcompiler] ----------
[maxjcompiler] 49. WARNING in /home/maxeler/asplos16/matmult/EngineCode/src/engine/BlockStorer.maxj (at line 6)
[maxjcompiler] 	import com.maxeler.maxcompiler.v2.kernelcompiler.stdlib.core.CounterChain;
[maxjcompiler] 	       ^^^^^^^^^^^^^^^^^^^^^^^^^^^^^^^^^^^^^^^^^^^^^^^^^^^^^^^^^^^^^^^^^^
[maxjcompiler] The import com.maxeler.maxcompiler.v2.kernelcompiler.stdlib.core.CounterChain is never used
[maxjcompiler] ----------
[maxjcompiler] 50. WARNING in /home/maxeler/asplos16/matmult/EngineCode/src/engine/BlockStorer.maxj (at line 11)
[maxjcompiler] 	import com.maxeler.maxcompiler.v2.kernelcompiler.Optimization;
[maxjcompiler] 	       ^^^^^^^^^^^^^^^^^^^^^^^^^^^^^^^^^^^^^^^^^^^^^^^^^^^^^^
[maxjcompiler] The import com.maxeler.maxcompiler.v2.kernelcompiler.Optimization is never used
[maxjcompiler] ----------
[maxjcompiler] 51. WARNING in /home/maxeler/asplos16/matmult/EngineCode/src/engine/BlockStorer.maxj (at line 77)
[maxjcompiler] 	DFEVar prevMstart = stream.offset(memStart, -1);
[maxjcompiler] 	       ^^^^^^^^^^
[maxjcompiler] The local variable prevMstart is never read
[maxjcompiler] ----------
[maxjcompiler] ----------
[maxjcompiler] 52. WARNING in /home/maxeler/asplos16/matmult/EngineCode/src/engine/BramLib.maxj (at line 6)
[maxjcompiler] 	import com.maxeler.maxcompiler.v2.kernelcompiler.SMIO;
[maxjcompiler] 	       ^^^^^^^^^^^^^^^^^^^^^^^^^^^^^^^^^^^^^^^^^^^^^^
[maxjcompiler] The import com.maxeler.maxcompiler.v2.kernelcompiler.SMIO is never used
[maxjcompiler] ----------
[maxjcompiler] ----------
[maxjcompiler] 53. WARNING in /home/maxeler/asplos16/matmult/EngineCode/src/engine/SumRowsManager.maxj (at line 13)
[maxjcompiler] 	import com.maxeler.maxcompiler.v2.kernelcompiler.Kernel;
[maxjcompiler] 	       ^^^^^^^^^^^^^^^^^^^^^^^^^^^^^^^^^^^^^^^^^^^^^^^^
[maxjcompiler] The import com.maxeler.maxcompiler.v2.kernelcompiler.Kernel is never used
[maxjcompiler] ----------
[maxjcompiler] 54. WARNING in /home/maxeler/asplos16/matmult/EngineCode/src/engine/SumRowsManager.maxj (at line 14)
[maxjcompiler] 	import com.maxeler.maxcompiler.v2.managers.standard.Manager;
[maxjcompiler] 	       ^^^^^^^^^^^^^^^^^^^^^^^^^^^^^^^^^^^^^^^^^^^^^^^^^^^^
[maxjcompiler] The import com.maxeler.maxcompiler.v2.managers.standard.Manager is never used
[maxjcompiler] ----------
[maxjcompiler] 55. WARNING in /home/maxeler/asplos16/matmult/EngineCode/src/engine/SumRowsManager.maxj (at line 15)
[maxjcompiler] 	import com.maxeler.maxcompiler.v2.managers.standard.Manager.MemAccessPattern;
[maxjcompiler] 	       ^^^^^^^^^^^^^^^^^^^^^^^^^^^^^^^^^^^^^^^^^^^^^^^^^^^^^^^^^^^^^^^^^^^^^
[maxjcompiler] The import com.maxeler.maxcompiler.v2.managers.standard.Manager.MemAccessPattern is never used
[maxjcompiler] ----------
[maxjcompiler] 56. WARNING in /home/maxeler/asplos16/matmult/EngineCode/src/engine/SumRowsManager.maxj (at line 16)
[maxjcompiler] 	import com.maxeler.maxcompiler.v2.managers.standard.Manager.IOType;
[maxjcompiler] 	       ^^^^^^^^^^^^^^^^^^^^^^^^^^^^^^^^^^^^^^^^^^^^^^^^^^^^^^^^^^^
[maxjcompiler] The import com.maxeler.maxcompiler.v2.managers.standard.Manager.IOType is never used
[maxjcompiler] ----------
[maxjcompiler] 57. WARNING in /home/maxeler/asplos16/matmult/EngineCode/src/engine/SumRowsManager.maxj (at line 37)
[maxjcompiler] 	private static final CPUTypes U64 =    CPUTypes.UINT64;
[maxjcompiler] 	                              ^^^
[maxjcompiler] The field SumRowsManager.U64 is never read locally
[maxjcompiler] ----------
[maxjcompiler] 58. WARNING in /home/maxeler/asplos16/matmult/EngineCode/src/engine/SumRowsManager.maxj (at line 38)
[maxjcompiler] 	private static final CPUTypes FLOAT  = CPUTypes.FLOAT;
[maxjcompiler] 	                              ^^^^^
[maxjcompiler] The field SumRowsManager.FLOAT is never read locally
[maxjcompiler] ----------
[maxjcompiler] ----------
[maxjcompiler] 59. WARNING in /home/maxeler/asplos16/matmult/EngineCode/src/engine/DblBufStateMachine.maxj (at line 48)
[maxjcompiler] 	this.numIter = numIter;
[maxjcompiler] 	^^^^^^^^^^^^^^^^^^^^^^
[maxjcompiler] The assignment to variable numIter has no effect
[maxjcompiler] ----------
[maxjcompiler] ----------
[maxjcompiler] 60. WARNING in /home/maxeler/asplos16/matmult/EngineCode/src/engine/BaseKernelLib.maxj (at line 2)
[maxjcompiler] 	import com.maxeler.maxcompiler.v2.kernelcompiler.stdlib.core.Count.Counter;
[maxjcompiler] 	       ^^^^^^^^^^^^^^^^^^^^^^^^^^^^^^^^^^^^^^^^^^^^^^^^^^^^^^^^^^^^^^^^^^^
[maxjcompiler] The import com.maxeler.maxcompiler.v2.kernelcompiler.stdlib.core.Count.Counter is never used
[maxjcompiler] ----------
[maxjcompiler] 61. WARNING in /home/maxeler/asplos16/matmult/EngineCode/src/engine/BaseKernelLib.maxj (at line 3)
[maxjcompiler] 	import com.maxeler.maxcompiler.v2.kernelcompiler.stdlib.core.CounterChain;
[maxjcompiler] 	       ^^^^^^^^^^^^^^^^^^^^^^^^^^^^^^^^^^^^^^^^^^^^^^^^^^^^^^^^^^^^^^^^^^
[maxjcompiler] The import com.maxeler.maxcompiler.v2.kernelcompiler.stdlib.core.CounterChain is never used
[maxjcompiler] ----------
[maxjcompiler] 62. WARNING in /home/maxeler/asplos16/matmult/EngineCode/src/engine/BaseKernelLib.maxj (at line 4)
[maxjcompiler] 	import com.maxeler.maxcompiler.v2.kernelcompiler.stdlib.core.Count;
[maxjcompiler] 	       ^^^^^^^^^^^^^^^^^^^^^^^^^^^^^^^^^^^^^^^^^^^^^^^^^^^^^^^^^^^
[maxjcompiler] The import com.maxeler.maxcompiler.v2.kernelcompiler.stdlib.core.Count is never used
[maxjcompiler] ----------
[maxjcompiler] 63. WARNING in /home/maxeler/asplos16/matmult/EngineCode/src/engine/BaseKernelLib.maxj (at line 5)
[maxjcompiler] 	import com.maxeler.maxcompiler.v2.kernelcompiler.stdlib.core.Count.Params;
[maxjcompiler] 	       ^^^^^^^^^^^^^^^^^^^^^^^^^^^^^^^^^^^^^^^^^^^^^^^^^^^^^^^^^^^^^^^^^^
[maxjcompiler] The import com.maxeler.maxcompiler.v2.kernelcompiler.stdlib.core.Count.Params is never used
[maxjcompiler] ----------
[maxjcompiler] 64. WARNING in /home/maxeler/asplos16/matmult/EngineCode/src/engine/BaseKernelLib.maxj (at line 6)
[maxjcompiler] 	import com.maxeler.maxcompiler.v2.kernelcompiler.stdlib.memory.Memory;
[maxjcompiler] 	       ^^^^^^^^^^^^^^^^^^^^^^^^^^^^^^^^^^^^^^^^^^^^^^^^^^^^^^^^^^^^^^
[maxjcompiler] The import com.maxeler.maxcompiler.v2.kernelcompiler.stdlib.memory.Memory is never used
[maxjcompiler] ----------
[maxjcompiler] 65. WARNING in /home/maxeler/asplos16/matmult/EngineCode/src/engine/BaseKernelLib.maxj (at line 7)
[maxjcompiler] 	import com.maxeler.maxcompiler.v2.kernelcompiler.Kernel;
[maxjcompiler] 	       ^^^^^^^^^^^^^^^^^^^^^^^^^^^^^^^^^^^^^^^^^^^^^^^^
[maxjcompiler] The import com.maxeler.maxcompiler.v2.kernelcompiler.Kernel is never used
[maxjcompiler] ----------
[maxjcompiler] 66. WARNING in /home/maxeler/asplos16/matmult/EngineCode/src/engine/BaseKernelLib.maxj (at line 8)
[maxjcompiler] 	import com.maxeler.maxcompiler.v2.kernelcompiler.KernelParameters;
[maxjcompiler] 	       ^^^^^^^^^^^^^^^^^^^^^^^^^^^^^^^^^^^^^^^^^^^^^^^^^^^^^^^^^^
[maxjcompiler] The import com.maxeler.maxcompiler.v2.kernelcompiler.KernelParameters is never used
[maxjcompiler] ----------
[maxjcompiler] 67. WARNING in /home/maxeler/asplos16/matmult/EngineCode/src/engine/BaseKernelLib.maxj (at line 11)
[maxjcompiler] 	import com.maxeler.maxcompiler.v2.utils.Bits;
[maxjcompiler] 	       ^^^^^^^^^^^^^^^^^^^^^^^^^^^^^^^^^^^^^
[maxjcompiler] The import com.maxeler.maxcompiler.v2.utils.Bits is never used
[maxjcompiler] ----------
[maxjcompiler] 68. WARNING in /home/maxeler/asplos16/matmult/EngineCode/src/engine/BaseKernelLib.maxj (at line 13)
[maxjcompiler] 	import com.maxeler.maxcompiler.v2.kernelcompiler.stdlib.KernelMath;
[maxjcompiler] 	       ^^^^^^^^^^^^^^^^^^^^^^^^^^^^^^^^^^^^^^^^^^^^^^^^^^^^^^^^^^^
[maxjcompiler] The import com.maxeler.maxcompiler.v2.kernelcompiler.stdlib.KernelMath is never used
[maxjcompiler] ----------
[maxjcompiler] 69. WARNING in /home/maxeler/asplos16/matmult/EngineCode/src/engine/BaseKernelLib.maxj (at line 15)
[maxjcompiler] 	import com.maxeler.maxcompiler.v2.kernelcompiler.stdlib.core.Stream.OffsetExpr;
[maxjcompiler] 	       ^^^^^^^^^^^^^^^^^^^^^^^^^^^^^^^^^^^^^^^^^^^^^^^^^^^^^^^^^^^^^^^^^^^^^^^
[maxjcompiler] The import com.maxeler.maxcompiler.v2.kernelcompiler.stdlib.core.Stream.OffsetExpr is never used
[maxjcompiler] ----------
[maxjcompiler] 70. WARNING in /home/maxeler/asplos16/matmult/EngineCode/src/engine/BaseKernelLib.maxj (at line 16)
[maxjcompiler] 	import com.maxeler.maxcompiler.v2.kernelcompiler.stdlib.Reductions;
[maxjcompiler] 	       ^^^^^^^^^^^^^^^^^^^^^^^^^^^^^^^^^^^^^^^^^^^^^^^^^^^^^^^^^^^
[maxjcompiler] The import com.maxeler.maxcompiler.v2.kernelcompiler.stdlib.Reductions is never used
[maxjcompiler] ----------
[maxjcompiler] ----------
[maxjcompiler] 71. WARNING in /home/maxeler/asplos16/matmult/EngineCode/src/engine/x8.maxj (at line 2)
[maxjcompiler] 	import com.maxeler.maxcompiler.v2.kernelcompiler.stdlib.core.Count.Counter;
[maxjcompiler] 	       ^^^^^^^^^^^^^^^^^^^^^^^^^^^^^^^^^^^^^^^^^^^^^^^^^^^^^^^^^^^^^^^^^^^
[maxjcompiler] The import com.maxeler.maxcompiler.v2.kernelcompiler.stdlib.core.Count.Counter is never used
[maxjcompiler] ----------
[maxjcompiler] 72. WARNING in /home/maxeler/asplos16/matmult/EngineCode/src/engine/x8.maxj (at line 3)
[maxjcompiler] 	import com.maxeler.maxcompiler.v2.kernelcompiler.stdlib.core.CounterChain;
[maxjcompiler] 	       ^^^^^^^^^^^^^^^^^^^^^^^^^^^^^^^^^^^^^^^^^^^^^^^^^^^^^^^^^^^^^^^^^^
[maxjcompiler] The import com.maxeler.maxcompiler.v2.kernelcompiler.stdlib.core.CounterChain is never used
[maxjcompiler] ----------
[maxjcompiler] 73. WARNING in /home/maxeler/asplos16/matmult/EngineCode/src/engine/x8.maxj (at line 4)
[maxjcompiler] 	import com.maxeler.maxcompiler.v2.kernelcompiler.stdlib.core.Count;
[maxjcompiler] 	       ^^^^^^^^^^^^^^^^^^^^^^^^^^^^^^^^^^^^^^^^^^^^^^^^^^^^^^^^^^^
[maxjcompiler] The import com.maxeler.maxcompiler.v2.kernelcompiler.stdlib.core.Count is never used
[maxjcompiler] ----------
[maxjcompiler] 74. WARNING in /home/maxeler/asplos16/matmult/EngineCode/src/engine/x8.maxj (at line 5)
[maxjcompiler] 	import com.maxeler.maxcompiler.v2.kernelcompiler.stdlib.core.Count.Params;
[maxjcompiler] 	       ^^^^^^^^^^^^^^^^^^^^^^^^^^^^^^^^^^^^^^^^^^^^^^^^^^^^^^^^^^^^^^^^^^
[maxjcompiler] The import com.maxeler.maxcompiler.v2.kernelcompiler.stdlib.core.Count.Params is never used
[maxjcompiler] ----------
[maxjcompiler] 75. WARNING in /home/maxeler/asplos16/matmult/EngineCode/src/engine/x8.maxj (at line 6)
[maxjcompiler] 	import com.maxeler.maxcompiler.v2.kernelcompiler.stdlib.memory.Memory;
[maxjcompiler] 	       ^^^^^^^^^^^^^^^^^^^^^^^^^^^^^^^^^^^^^^^^^^^^^^^^^^^^^^^^^^^^^^
[maxjcompiler] The import com.maxeler.maxcompiler.v2.kernelcompiler.stdlib.memory.Memory is never used
[maxjcompiler] ----------
[maxjcompiler] 76. WARNING in /home/maxeler/asplos16/matmult/EngineCode/src/engine/x8.maxj (at line 7)
[maxjcompiler] 	import com.maxeler.maxcompiler.v2.kernelcompiler.Kernel;
[maxjcompiler] 	       ^^^^^^^^^^^^^^^^^^^^^^^^^^^^^^^^^^^^^^^^^^^^^^^^
[maxjcompiler] The import com.maxeler.maxcompiler.v2.kernelcompiler.Kernel is never used
[maxjcompiler] ----------
[maxjcompiler] 77. WARNING in /home/maxeler/asplos16/matmult/EngineCode/src/engine/x8.maxj (at line 8)
[maxjcompiler] 	import com.maxeler.maxcompiler.v2.kernelcompiler.KernelParameters;
[maxjcompiler] 	       ^^^^^^^^^^^^^^^^^^^^^^^^^^^^^^^^^^^^^^^^^^^^^^^^^^^^^^^^^^
[maxjcompiler] The import com.maxeler.maxcompiler.v2.kernelcompiler.KernelParameters is never used
[maxjcompiler] ----------
[maxjcompiler] 78. WARNING in /home/maxeler/asplos16/matmult/EngineCode/src/engine/x8.maxj (at line 10)
[maxjcompiler] 	import com.maxeler.maxcompiler.v2.utils.MathUtils;
[maxjcompiler] 	       ^^^^^^^^^^^^^^^^^^^^^^^^^^^^^^^^^^^^^^^^^^
[maxjcompiler] The import com.maxeler.maxcompiler.v2.utils.MathUtils is never used
[maxjcompiler] ----------
[maxjcompiler] 79. WARNING in /home/maxeler/asplos16/matmult/EngineCode/src/engine/x8.maxj (at line 11)
[maxjcompiler] 	import com.maxeler.maxcompiler.v2.utils.Bits;
[maxjcompiler] 	       ^^^^^^^^^^^^^^^^^^^^^^^^^^^^^^^^^^^^^
[maxjcompiler] The import com.maxeler.maxcompiler.v2.utils.Bits is never used
[maxjcompiler] ----------
[maxjcompiler] 80. WARNING in /home/maxeler/asplos16/matmult/EngineCode/src/engine/x8.maxj (at line 13)
[maxjcompiler] 	import com.maxeler.maxcompiler.v2.kernelcompiler.stdlib.KernelMath;
[maxjcompiler] 	       ^^^^^^^^^^^^^^^^^^^^^^^^^^^^^^^^^^^^^^^^^^^^^^^^^^^^^^^^^^^
[maxjcompiler] The import com.maxeler.maxcompiler.v2.kernelcompiler.stdlib.KernelMath is never used
[maxjcompiler] ----------
[maxjcompiler] 81. WARNING in /home/maxeler/asplos16/matmult/EngineCode/src/engine/x8.maxj (at line 14)
[maxjcompiler] 	import com.maxeler.maxcompiler.v2.kernelcompiler.types.base.DFEType;
[maxjcompiler] 	       ^^^^^^^^^^^^^^^^^^^^^^^^^^^^^^^^^^^^^^^^^^^^^^^^^^^^^^^^^^^^
[maxjcompiler] The import com.maxeler.maxcompiler.v2.kernelcompiler.types.base.DFEType is never used
[maxjcompiler] ----------
[maxjcompiler] 82. WARNING in /home/maxeler/asplos16/matmult/EngineCode/src/engine/x8.maxj (at line 15)
[maxjcompiler] 	import com.maxeler.maxcompiler.v2.kernelcompiler.stdlib.core.Stream.OffsetExpr;
[maxjcompiler] 	       ^^^^^^^^^^^^^^^^^^^^^^^^^^^^^^^^^^^^^^^^^^^^^^^^^^^^^^^^^^^^^^^^^^^^^^^
[maxjcompiler] The import com.maxeler.maxcompiler.v2.kernelcompiler.stdlib.core.Stream.OffsetExpr is never used
[maxjcompiler] ----------
[maxjcompiler] 83. WARNING in /home/maxeler/asplos16/matmult/EngineCode/src/engine/x8.maxj (at line 16)
[maxjcompiler] 	import com.maxeler.maxcompiler.v2.kernelcompiler.stdlib.Reductions;
[maxjcompiler] 	       ^^^^^^^^^^^^^^^^^^^^^^^^^^^^^^^^^^^^^^^^^^^^^^^^^^^^^^^^^^^
[maxjcompiler] The import com.maxeler.maxcompiler.v2.kernelcompiler.stdlib.Reductions is never used
[maxjcompiler] ----------
[maxjcompiler] 84. WARNING in /home/maxeler/asplos16/matmult/EngineCode/src/engine/x8.maxj (at line 17)
[maxjcompiler] 	import com.maxeler.maxcompiler.v2.kernelcompiler.SMIO;
[maxjcompiler] 	       ^^^^^^^^^^^^^^^^^^^^^^^^^^^^^^^^^^^^^^^^^^^^^^
[maxjcompiler] The import com.maxeler.maxcompiler.v2.kernelcompiler.SMIO is never used
[maxjcompiler] ----------
[maxjcompiler] 85. WARNING in /home/maxeler/asplos16/matmult/EngineCode/src/engine/x8.maxj (at line 18)
[maxjcompiler] 	import com.maxeler.maxcompiler.v2.kernelcompiler.stdlib.Accumulator;
[maxjcompiler] 	       ^^^^^^^^^^^^^^^^^^^^^^^^^^^^^^^^^^^^^^^^^^^^^^^^^^^^^^^^^^^^
[maxjcompiler] The import com.maxeler.maxcompiler.v2.kernelcompiler.stdlib.Accumulator is never used
[maxjcompiler] ----------
[maxjcompiler] ----------
[maxjcompiler] 86. WARNING in /home/maxeler/asplos16/matmult/EngineCode/src/engine/BlockLoader.maxj (at line 6)
[maxjcompiler] 	import com.maxeler.maxcompiler.v2.kernelcompiler.stdlib.core.CounterChain;
[maxjcompiler] 	       ^^^^^^^^^^^^^^^^^^^^^^^^^^^^^^^^^^^^^^^^^^^^^^^^^^^^^^^^^^^^^^^^^^
[maxjcompiler] The import com.maxeler.maxcompiler.v2.kernelcompiler.stdlib.core.CounterChain is never used
[maxjcompiler] ----------
[maxjcompiler] 87. WARNING in /home/maxeler/asplos16/matmult/EngineCode/src/engine/BlockLoader.maxj (at line 11)
[maxjcompiler] 	import com.maxeler.maxcompiler.v2.kernelcompiler.Optimization;
[maxjcompiler] 	       ^^^^^^^^^^^^^^^^^^^^^^^^^^^^^^^^^^^^^^^^^^^^^^^^^^^^^^
[maxjcompiler] The import com.maxeler.maxcompiler.v2.kernelcompiler.Optimization is never used
[maxjcompiler] ----------
[maxjcompiler] 87 problems (87 warnings)

all:
      [ant] Exiting /home/maxeler/asplos16/matmult/RunRules/DFE/Project_Build.xml.

run:
     [java] Executing '/usr/lib/jvm/java-1.7.0-openjdk-1.7.0.79.x86_64/jre/bin/java' with arguments:
     [java] '-Xmx2048m'
     [java] '-classpath'
     [java] '/home/maxeler/asplos16/matmult/RunRules/DFE/dist/bin:/opt/maxeler/maxcompiler-2014.2/lib/MaxCompiler.jar'
     [java] 'engine.SumRowsManager'
     [java] 
     [java] The ' characters around the executable and arguments are
     [java] not part of the command.
     [java] Setting environment variable: MAXSOURCEDIRS=src
     [java] Tue 18:20: MaxCompiler version: 2014.2
     [java] Tue 18:20: Build "SumRows" start time: Tue Aug 04 18:20:18 BST 2015
     [java] Tue 18:20: Main build process running as user maxeler on host maxnode7795.localdomain
     [java] Tue 18:20: Build location: /home/maxeler/asplos16/matmult/RunRules/DFE/maxfiles/SumRows_MAIA_DFE
     [java] Tue 18:20: Detailed build log available in "_build.log"
     [java] Tue 18:20: 
     [java] Tue 18:20: ENGINE BUILD PARAMETERS
     [java] Tue 18:20: 	 Build name: SumRows_MAIA_DFE
     [java] Tue 18:20: 	   DFEModel: MAIA            
     [java] Tue 18:20: 	maxFileName: SumRows         
     [java] Tue 18:20: 	     target: DFE             
     [java] Tue 18:20: 	 enableMPCX: false           
     [java] Tue 18:20: Instantiating kernel "SumRowsKernel"
     [java] Tue 18:20: 
     [java] Tue 18:20: Compiling kernel "SumRowsKernel"
     [java] Tue 18:20: WARNING: Warning (UNCONNECTED_DESIGN_ELEMENT):
     [java] Tue 18:20: WARNING: Unconnected elements in design 'SumRowsKernel'
     [java] Tue 18:20: WARNING: details in : /home/maxeler/asplos16/matmult/RunRules/DFE/maxfiles/SumRows_MAIA_DFE/scratch/SumRowsKernel_graph_warnings.txt
     [java] Tue 18:20: Generating input files (VHDL, netlists, MegaWizard/CoreGen)
     [java] Tue 18:22: WARNING: Ignoring printf statements in VHDL codegen.
     [java] Tue 18:22: Running back-end  build (16 phases)
     [java] Tue 18:22: (1/16) - Prepare MaxFile Data (GenerateMaxFileDataFile)
     [java] Tue 18:22: (2/16) - Prepare for Placement (QuartusMap)
     [java] Tue 18:43: (3/16) - Generate Incremental Netlist (QuartusCdb)
     [java] Tue 18:45: (4/16) - Generate Resource Report (AlteraResourceUsageBuildPass)
     [java] Tue 18:45: (5/16) - Generate Annotated Source Code (AlteraResourceAnnotationBuildPass)
     [java] Tue 18:45: (6/16) - Analyse Resource Usage (AlteraResourceCounterPass)
     [java] Tue 18:45: 
     [java] Tue 18:45: About to start chip vendor Map/Place/Route toolflow. This will take some time.
     [java] Tue 18:45: For this compile, we estimate this process may take up to 1 hour.
     [java] Tue 18:45: We recommend running in simulation to verify correctness before building hardware.
     [java] Tue 18:45: 
     [java] Tue 18:45: PRELIMINARY RESOURCE USAGE
     [java] Tue 18:45: Logic utilization:      70735 / 262400   (26.96%)
     [java] Tue 18:45: Multipliers (18x18):       28 / 3926     (0.71%)
     [java] Tue 18:45: Block memory (bits): 11459908 / 52572160 (21.80%)
     [java] Tue 18:45: 
     [java] Tue 18:45: (7/16) - Place and Route DFE (AlteraMPPR)
     [java] Tue 18:45: Executing MPPR with 4 cost tables and 4 threads.
     [java] Tue 18:45: MPPR: Starting 4 cost tables
     [java] Tue 20:58: MPPR: Cost table 2 met timing with score 0 (best score 0)
     [java] Tue 20:58: (8/16) - Generate Configuration (QuartusAsm)
     [java] Tue 21:01: (9/16) - Convert Programming File (QuartusCpf)
     [java] Tue 21:01: (10/16) - Update Checksum (UpdateChecksumBuildPass)
     [java] Tue 21:01: (11/16) - Generate Incremental Netlist (QuartusCdb)
     [java] Tue 21:03: (12/16) - Generate Configuration (QuartusAsm)
     [java] Tue 21:06: (13/16) - Convert Programming File (QuartusCpf)
     [java] Tue 21:06: (14/16) - Generate Resource Report (AlteraResourceUsageBuildPass)
     [java] Tue 21:07: (15/16) - Generate Annotated Source Code (AlteraResourceAnnotationBuildPass)
     [java] Tue 21:07: (16/16) - Generate MaxFile (GenerateMaxFileAltera)
     [java] Tue 21:07: 
     [java] Tue 21:07: FINAL RESOURCE USAGE
     [java] Tue 21:07: Logic utilization:    68170 / 262400 (25.98%)
     [java] Tue 21:07:   Primary FFs:       110572 / 524800 (21.07%)
     [java] Tue 21:07:   Secondary FFs:       6536 / 524800 (1.25%)
     [java] Tue 21:07: Multipliers (18x18):     28 / 3926   (0.71%)
     [java] Tue 21:07:   DSP blocks:            14 / 1963   (0.71%)
     [java] Tue 21:07: Block memory (M20K):    823 / 2567   (32.06%)
     [java] Tue 21:07: 
     [java] Tue 21:07: MaxFile: /home/maxeler/asplos16/matmult/RunRules/DFE/maxfiles/SumRows_MAIA_DFE/results/SumRows.max (MD5Sum: f8388026b205b29d8c1c7e00a54bc2b4)
     [java] Tue 21:07: Build completed: Tue Aug 04 21:07:16 BST 2015 (took 2 hours, 46 mins, 57 secs)

BUILD SUCCESSFUL
Total time: 166 minutes 58 seconds
